{
"meta":{"test_sets":[],"test_metrics":[],"learn_metrics":[{"best_value":"Min","name":"Logloss"}],"launch_mode":"Train","parameters":"","iteration_count":1000,"learn_sets":["learn"],"name":"experiment"},
"iterations":[
{"learn":[0.6872345322],"iteration":0,"passed_time":0.008160747576,"remaining_time":8.152586828},
{"learn":[0.6817057459],"iteration":1,"passed_time":0.0137607608,"remaining_time":6.866619637},
{"learn":[0.6769963772],"iteration":2,"passed_time":0.02317031671,"remaining_time":7.700268586},
{"learn":[0.6715520525],"iteration":3,"passed_time":0.03008987344,"remaining_time":7.492378487},
{"learn":[0.6666109789],"iteration":4,"passed_time":0.03330558289,"remaining_time":6.627810995},
{"learn":[0.6614832484],"iteration":5,"passed_time":0.03781497639,"remaining_time":6.264681089},
{"learn":[0.6563387508],"iteration":6,"passed_time":0.04555020432,"remaining_time":6.461621841},
{"learn":[0.651248905],"iteration":7,"passed_time":0.04800118651,"remaining_time":5.952147127},
{"learn":[0.6473176239],"iteration":8,"passed_time":0.05064494456,"remaining_time":5.576571118},
{"learn":[0.6432045058],"iteration":9,"passed_time":0.05465917002,"remaining_time":5.411257832},
{"learn":[0.6397475362],"iteration":10,"passed_time":0.05702911749,"remaining_time":5.127436108},
{"learn":[0.6355998033],"iteration":11,"passed_time":0.05949373491,"remaining_time":4.898317508},
{"learn":[0.6321938851],"iteration":12,"passed_time":0.06171251014,"remaining_time":4.685403655},
{"learn":[0.6281537574],"iteration":13,"passed_time":0.0643959105,"remaining_time":4.535311982},
{"learn":[0.6242195271],"iteration":14,"passed_time":0.06681211463,"remaining_time":4.387328861},
{"learn":[0.6206901292],"iteration":15,"passed_time":0.06936262308,"remaining_time":4.265801319},
{"learn":[0.6171518577],"iteration":16,"passed_time":0.0719350393,"remaining_time":4.159537861},
{"learn":[0.613487233],"iteration":17,"passed_time":0.08152374068,"remaining_time":4.447572964},
{"learn":[0.6102222102],"iteration":18,"passed_time":0.0861932302,"remaining_time":4.450292,
{,
{"learn":[0.6068590507],"iteration":19,"passed_time":0.09181671569,"remaining_time":4.49901,
{"l,
{"learn":[0.6034230233],"iteration":20,"passed_time":0.09645366606,"remaining_time":4.4965,
{"le,
{"learn":[0.6005482881],"iteration":21,"passed_time":0.09978155668,"remaining_time":4.,
{"learn",
{"learn":[0.5976153505],"iteration":22,"passed_time":0.1058811656,"remaining_time":4.,
{"learn",
{"learn":[0.5945964877],"iteration":23,"passed_time":0.1098227326,"remaining_time":4.,
{"learn",
{"learn":[0.5919025235],"iteration":24,"passed_time":0.1140795195,"remaining_time":4.,
{"learn",
{"learn":[0.5890575487],"iteration":25,"passed_time":0.1172733979,"remaining_time":4.,
{"learn",
{"learn":[0.5860071086],"iteration":26,"passed_time":0.1246927187,"remaining_time":4.493556122},
{"learn":[0.5837134659],"iteration":27,"passed_time":0.1301746948,"remaining_time":4.518921547},
{"learn":[0.5809815308],"iteration":28,"passed_time":0.134405457,"remaining_time":4.500265474},
{"learn":[0.5782324871],"iteration":29,"passed_time":0.1389865211,"remaining_time":4.493897515},
{"learn":[0.5760505938],"iteration":30,"passed_time":0.1429360578,"remaining_time":4.467904516},
{"learn":[0.5735245239],"iteration":31,"passed_time":0.1472435031,"remaining_time":4.454115969},
{"learn":[0.5711120694],"iteration":32,"passed_time":0.1548503733,"remaining_time":4.53758518},
{"learn":[0.5692018605],"iteration":33,"passed_time":0.1577602321,"remaining_time":4.482246594},
{"learn":[0.5667657464],"iteration":34,"passed_time":0.1614122568,"remaining_time":4.450366508},
{"learn":[0.5649972067],"iteration":35,"passed_time":0.1682035981,"remaining_time":4.504118573},
{"learn":[0.5628738599],"iteration":36,"passed_time":0.175096827,"remaining_time":4.55724985},
{"learn":[0.5612428954],"iteration":37,"passed_time":0.1822172842,"remaining_time":4.612974406},
{"learn":[0.5593100902],"iteration":38,"passed_time":0.1856376097,"remaining_time":4.574301101},
{"learn":[0.5573151155],"iteration":39,"passed_time":0.1904312112,"remaining_time":4.570349068},
{"learn":[0.555862364],"iteration":40,"passed_time":0.2000073876,"remaining_time":4.678221578},
{"learn":[0.5545627328],"iteration":41,"passed_time":0.2021171701,"remaining_time":4.6,
{"learn,
{"learn":[0.5528506469],"iteration":42,"passed_time":0.204248495,"remaining_time":4.5,
{"learn,
{"learn":[0.5513427526],"iteration":43,"passed_time":0.2110356859,"remaining_time":4.5,
{"learn,
{"learn":[0.5498126243],"iteration":44,"passed_time":0.2140791346,"remaining_time":4.5,
{"learn,
{"learn":[0.5483708599],"iteration":45,"passed_time":0.2168550182,"remaining_time":4.,
{"learn",
{"learn":[0.5467698238],"iteration":46,"passed_time":0.219309698,"remaining_time":4.4,
{"lear,
{"learn":[0.5453401301],"iteration":47,"passed_time":0.2221988676,"remaining_time":4.40,
{"lear,
{"learn":[0.5437021976],"iteration":48,"passed_time":0.2259186256,"remaining_time":4.38,
{"lear,
{"learn":[0.5420231228],"iteration":49,"passed_time":0.229149652,"remaining_time":4.35,
{"lear,
{"learn":[0.5407453683],"iteration":50,"passed_time":0.2319115357,"remaining_time":4.31,
{"lear,
{"learn":[0.5392197682],"iteration":51,"passed_time":0.2346151428,"remaining_time":4.27,
{"lear,,
{"learn":[0.5320974497],"iteration":52,"passed_time":0.2636321861,"remaining_time":4.7,
{"lear,
{"learn":[0.5365379954],"iteration":53,"passed_time":0.241243077,"remaining_time":4.226,
{"lea,
{"learn":[0.5351268152],"iteration":54,"passed_time":0.245123265,"remaining_time":4.2116,
{"le,
{,
{"learn":[0.5284081529],"iteration":55,"passed_time":0.2745185806,"remaining_time",
{"learn":[,
{"learn":[0.527064233],"iteration":56,"passed_time":0.2786857935,"remaining_time":4,
{"learn":,
{"learn":[0.5258527015],"iteration":57,"passed_time":0.2857598231,"remaining_time":4,
{"learn":,
{"learn":[0.5244991732],"iteration":58,"passed_time":0.2906630847,"remaining_time":4.635829877},
{"learn":[0.5236521603],"iteration":59,"passed_time":0.2927179909,"remaining_time":4,
{"learn":,
{"learn":[0.5225262855],"iteration":60,"passed_time":0.3002126495,"remaining_time":4.621306194},
{"learn":[0.5210807132],"iteration":61,"passed_time":0.3036641065,"remaining_time":4,
{"learn":,
{"learn":[0.5200787102],"iteration":62,"passed_time":0.307916462,"remaining_time":4.,
{"learn",
{"learn":[0.5190317226],"iteration":63,"passed_time":0.3159699891,"remaining_time":4.62106109},
{"learn":[0.5183529112],"iteration":64,"passed_time":0.3249501692,"remaining_time":4.674283203},
{"learn":[0.5172910196],"iteration":65,"passed_time":0.3305126006,"remaining_time":4.677254074},
{"learn":[0.5164099405],"iteration":66,"passed_time":0.3338041735,"remaining_time":4.648347669},
{"learn":[0.5153396961],"iteration":67,"passed_time":0.3386042293,"remaining_time":4.640869731},
{"learn":[0.514380931],"iteration":68,"passed_time":0.3427803057,"remaining_time":4.625050212},
{"learn":[0.5134177984],"iteration":69,"passed_time":0.3503885646,"remaining_time":4.655162358},
{"learn":[0.5124866574],"iteration":70,"passed_time":0.35452248,"remaining_time":4.638751886},
{"learn":[0.511492243],"iteration":71,"passed_time":0.3607029394,"remaining_time":4.649060108},
{"learn":[0.5104954264],"iteration":72,"passed_time":0.3694388547,"remaining_time":4.691367374},
{"learn":[0.5096556198],"iteration":73,"passed_time":0.3771586296,"remaining_time":4.719579608},
{"learn":[0.5088047853],"iteration":74,"passed_time":0.3831910192,"remaining_time":4.726022571},
{"learn":[0.5077021672],"iteration":75,"passed_time":0.3914857598,"remaining_time":4.759642658},
{"learn":[0.5067551942],"iteration":76,"passed_time":0.3968147234,"remaining_time":4.756623243},
{"learn":[0.5060012626],"iteration":77,"passed_time":0.4027204912,"remaining_time":4.760362729},
{"learn":[0.5053173741],"iteration":78,"passed_time":0.4083515952,"remaining_time":4.760655939},
{"learn":[0.5043227412],"iteration":79,"passed_time":0.4115571054,"remaining_time":4.732906712},
{"learn":[0.5033743488],"iteration":80,"passed_time":0.4163500119,"remaining_time":4.723773592},
{"learn":[0.5025062083],"iteration":81,"passed_time":0.4197408309,"remaining_time":4.699049789},
{"learn":[0.5018603166],"iteration":82,"passed_time":0.4231648975,"remaining_time":4.675207362},
{"learn":[0.5009233888],"iteration":83,"passed_time":0.4252487621,"remaining_time":4.637236501},
{"learn":[0.5002465973],"iteration":84,"passed_time":0.4289571517,"remaining_time":4.617597575},
{"learn":[0.4994146521],"iteration":85,"passed_time":0.4405129181,"remaining_time":4.681730316},
{"learn":[0.4985503331],"iteration":86,"passed_time":0.4496506614,"remaining_time":4.718747746},
{"learn":[0.4977209538],"iteration":87,"passed_time":0.4546554278,"remaining_time":4.711883524},
{"learn":[0.4969872217],"iteration":88,"passed_time":0.4567481303,"remaining_time":4.675253333},
{"learn":[0.4960927673],"iteration":89,"passed_time":0.4596104606,"remaining_time":4.647172435},
{"learn":[0.4955468357],"iteration":90,"passed_time":0.4621566448,"remaining_time":4.616487803},
{"learn":[0.4950241608],"iteration":91,"passed_time":0.4645526898,"remaining_time":4.584933069},
{"learn":[0.4943235667],"iteration":92,"passed_time":0.4671343698,"remaining_time":4.555815843},
{"learn":[0.4938280791],"iteration":93,"passed_time":0.46964335,"remaining_time":4.526562501},
{"learn":[0.4931414609],"iteration":94,"passed_time":0.471857555,"remaining_time":4.495064076},
{"learn":[0.4925680143],"iteration":95,"passed_time":0.474092888,"remaining_time":,
{"learn":[,
{"learn":[0.4918899673],"iteration":96,"passed_time":0.4765881151,"remaining_time":,
{"learn":[0.4945345098],"iteration":97,"passed_time":0.4740407993,"remaining_time":4.363110214},
{"learn":[0.4938906002],"iteration":98,"passed_time":0.4779718709,"remaining_time":4.350026825},
{"learn":[0.4932008548],"iteration":99,"passed_time":0.483179382,"remaining_time":4.348614438},
{"learn":[0.4927724697],"iteration":100,"passed_time":0.4918829767,"remaining_time":4.378245505},
{"learn":[0.4921668296],"iteration":101,"passed_time":0.4992463391,"remaining_time":4.395325613},
{"learn":[0.4914926363],"iteration":102,"passed_time":0.5027702253,"remaining_time":4.378494098},
{"learn":[0.4912618993],"iteration":103,"passed_time":0.5057242396,"remaining_time":4.357008833},
{"learn":[0.4907321404],"iteration":104,"passed_time":0.5108747609,"remaining_time":4.354599152},
{"learn":[0.4903505983],"iteration":105,"passed_time":0.5199987388,"remaining_time":4.38564974},
{"learn":[0.4898259379],"iteration":106,"passed_time":0.5226696755,"remaining_time":4.362093647},
{"learn":[0.4891512263],"iteration":107,"passed_time":0.524914862,"remaining_time":4.335407934},
{"learn":[0.4887064487],"iteration":108,"passed_time":0.527294481,"remaining_time":4.310269565},
{"learn":[0.4884481406],"iteration":109,"passed_time":0.5289941979,"remaining_time":4.280043965},
{"learn":[0.4877694634],"iteration":110,"passed_time":0.5330397068,"remaining_time":4.269119814},
{"learn":[0.4872822562],"iteration":111,"passed_time":0.5371458312,"remaining_time":4.25879909},
{"learn":[0.4866629779],"iteration":112,"passed_time":0.5459309816,"remaining_time":4.285316643},
{"learn":[0.4861607382],"iteration":113,"passed_time":0.5524688984,"remaining_time":4.293749509},
{"learn":[0.4856916698],"iteration":114,"passed_time":0.5556695878,"remaining_time":4.276239871},
{"learn":[0.4851239948],"iteration":115,"passed_time":0.5587270768,"remaining_time":4.257885654},
{"learn":[0.4846243191],"iteration":116,"passed_time":0.5612808167,"remaining_time":4.235991121},
{"learn":[0.48399501],"iteration":117,"passed_time":0.5665788434,"remaining_time":4.234936779},
{"learn":[0.4834055187],"iteration":118,"passed_time":0.569730799,"remaining_time":4.217922974},
{"learn":[0.4829016377],"iteration":119,"passed_time":0.5724268277,"remaining_time":4.197796736},
{"learn":[0.4823316831],"iteration":120,"passed_time":0.5748277046,"remaining_time":4.175814482},
{"learn":[0.4819896906],"iteration":121,"passed_time":0.5808642298,"remaining_time":4.180317982},
{"learn":[0.4815380545],"iteration":122,"passed_time":0.5869263478,"remaining_time":4.184832578},
{"learn":[0.4810271617],"iteration":123,"passed_time":0.5911727309,"remaining_time":4.176349293},
{"learn":[0.4805556701],"iteration":124,"passed_time":0.594172978,"remaining_time":4.159210846},
{"learn":[0.4801174531],"iteration":125,"passed_time":0.6008249684,"remaining_time":4.167627161},
{"learn":[0.4796859125],"iteration":126,"passed_time":0.6081438812,"remaining_time":4.180390616},
{"learn":[0.4790854804],"iteration":127,"passed_time":0.6157638456,"remaining_time":4.194891198},
{"learn":[0.4789201169],"iteration":128,"passed_time":0.6171970368,"remaining_time":4.167276116},
{"learn":[0.4783437578],"iteration":129,"passed_time":0.6207058287,"remaining_time":4.153954392},
{"learn":[0.4779330299],"iteration":130,"passed_time":0.6256602334,"remaining_time":4.150372082},
{"learn":[0.4775036705],"iteration":131,"passed_time":0.6307312253,"remaining_time":4.147535633},
{"learn":[0.4769980109],"iteration":132,"passed_time":0.6336505328,"remaining_time":4.130639187},
{"learn":[0.4767559589],"iteration":133,"passed_time":0.6388341652,"remaining_time":4.128584978},
{"learn":[0.4761069144],"iteration":134,"passed_time":0.643194226,"remaining_time":4.121207448},
{"learn":[0.4759651952],"iteration":135,"passed_time":0.6464074633,"remaining_time":4.106588591},
{"learn":[0.475514812],"iteration":136,"passed_time":0.6485595003,"remaining_time":4.085451451},
{"learn":[0.4750586961],"iteration":137,"passed_time":0.6535696058,"remaining_time":4.082442031},
{"learn":[0.474768889],"iteration":138,"passed_time":0.6612821175,"remaining_time":4.096143188},
{"learn":[0.474184471],"iteration":139,"passed_time":0.6647858831,"remaining_time":4.08368471},
{"learn":[0.4737404211],"iteration":140,"passed_time":0.67437249,"remaining_time":4.108411127},
{"learn":[0.4732614775],"iteration":141,"passed_time":0.6794181999,"remaining_time":4.105217011},
{"learn":[0.472816634],"iteration":142,"passed_time":0.6853316444,"remaining_time":4.107197338},
{"learn":[0.4725698509],"iteration":143,"passed_time":0.6911980434,"remaining_time":4.108788369},
{"learn":[0.472100077],"iteration":144,"passed_time":0.6944613816,"remaining_time":4.094927457},
{"learn":[0.4716903938],"iteration":145,"passed_time":0.6968379874,"remaining_time":4.07602494},
{"learn":[0.4714046787],"iteration":146,"passed_time":0.7034238146,"remaining_time":4.081772203},
{"learn":[0.4711456974],"iteration":147,"passed_time":0.7058991838,"remaining_time":4.063689896},
{"learn":[0.4707629855],"iteration":148,"passed_time":0.711547112,"remaining_time":4.063936861},
{"learn":[0.4701897916],"iteration":149,"passed_time":0.7145162026,"remaining_time":4.048925148},
{"learn":[0.4698273618],"iteration":150,"passed_time":0.7196290731,"remaining_time":4.046126378},
{"learn":[0.4693364769],"iteration":151,"passed_time":0.7230583142,"remaining_time":4.033904279},
{"learn":[0.4689355472],"iteration":152,"passed_time":0.7268785627,"remaining_time":4.023961716},
{"learn":[0.468544931],"iteration":153,"passed_time":0.7332117315,"remaining_time":4.027903408},
{"learn":[0.4681369884],"iteration":154,"passed_time":0.7378079058,"remaining_time":4.0222431},
{"learn":[0.4678138414],"iteration":155,"passed_time":0.7419983391,"remaining_time":4.01440127},
{"learn":[0.46743914],"iteration":156,"passed_time":0.7476525874,"remaining_time":4.014465804},
{"learn":[0.4671799271],"iteration":157,"passed_time":0.7499115893,"remaining_time":3.996364292},
{"learn":[0.4668246711],"iteration":158,"passed_time":0.7586424121,"remaining_time":4.012693513},
{"learn":[0.4665115112],"iteration":159,"passed_time":0.7618257018,"remaining_time":3.999584934},
{"learn":[0.4661082212],"iteration":160,"passed_time":0.765292184,"remaining_time":3.988075419},
{"learn":[0.465799947],"iteration":161,"passed_time":0.7696404507,"remaining_time":3.981226529},
{"learn":[0.4652809235],"iteration":162,"passed_time":0.7764874389,"remaining_time":3.98723918},
{"learn":[0.4648508432],"iteration":163,"passed_time":0.7808934283,"remaining_time":3.980651866},
{"learn":[0.4645099111],"iteration":164,"passed_time":0.7841462357,"remaining_time":3.968255193},
{"learn":[0.4640524601],"iteration":165,"passed_time":0.7866173067,"remaining_time":3.952041167},
{"learn":[0.4637564525],"iteration":166,"passed_time":0.7909856104,"remaining_time":3.94545517},
{"learn":[0.4634317921],"iteration":167,"passed_time":0.7945847874,"remaining_time":3.935086566},
{"learn":[0.4629405512],"iteration":168,"passed_time":0.7980707644,"remaining_time":3.924241451},
{"learn":[0.4625839009],"iteration":169,"passed_time":0.8022899804,"remaining_time":3.917062846},
{"learn":[0.4623053219],"iteration":170,"passed_time":0.8083324469,"remaining_time":3.918757886},
{"learn":[0.4621078039],"iteration":171,"passed_time":0.812686708,"remaining_time":3.912236013},
{"learn":[0.4618159776],"iteration":172,"passed_time":0.8190665897,"remaining_time":3.915422368},
{"learn":[0.4614583121],"iteration":173,"passed_time":0.8265607671,"remaining_time":3.923788469},
{"learn":[0.4609830883],"iteration":174,"passed_time":0.834037056,"remaining_time":3.931888978},
{"learn":[0.4606277657],"iteration":175,"passed_time":0.838192578,"remaining_time":3.924265252},
{"learn":[0.4601999084],"iteration":176,"passed_time":0.8419350317,"remaining_time":3.914760063},
{"learn":[0.4598459679],"iteration":177,"passed_time":0.8500470265,"remaining_time":3.925498066},
{"learn":[0.4594591227],"iteration":178,"passed_time":0.8585126584,"remaining_time":3.937647444},
{"learn":[0.4591895622],"iteration":179,"passed_time":0.8644599559,"remaining_time":3.938095355},
{"learn":[0.4587386434],"iteration":180,"passed_time":0.8697805288,"remaining_time":3.935636758},
{"learn":[0.4582923555],"iteration":181,"passed_time":0.872474354,"remaining_time":3.921340778},
{"learn":[0.4576787558],"iteration":182,"passed_time":0.8751559796,"remaining_time":3.907117133},
{"learn":[0.4573636083],"iteration":183,"passed_time":0.8774026951,"remaining_time":3.891090213},
{"learn":[0.4571643819],"iteration":184,"passed_time":0.8798896761,"remaining_time":3.876270735},
,
{"learn":[0.4505317537],"iteration":185,"passed_time":0.8820450187,"remaining_time":3.8601325,
{,
{"learn":[0.4502137599],"iteration":186,"passed_time":0.8873048051,"remaining_time":3.8576406,
{,
{"learn":[0.4498275563],"iteration":187,"passed_time":0.8927327914,"remaining_time":3.8558458,
{,
{"learn":[0.4494341065],"iteration":188,"passed_time":0.8990205034,"remaining_time":3.857701,
{"learn":[0.4557792432],"iteration":189,"passed_time":0.9010706936,"remaining_time":3.841406641},
{,
{"learn":[0.4492250363],"iteration":190,"passed_time":0.9059562439,"remaining_time":3.8372701,
{,
{"learn":[0.4489880111],"iteration":191,"passed_time":0.9143096372,"remaining_time":3.8477197,
{,
{"learn":[0.4486749551],"iteration":192,"passed_time":0.9205987427,"remaining_time":3.849342929},
{"learn":[0.4483297364],"iteration":193,"passed_time":0.9271177777,"remaining_time":3.851839839},
{"learn":[0.4482002699],"iteration":194,"passed_time":0.9293520507,"remaining_time":3.836555901},
{"learn":[0.4478539937],"iteration":195,"passed_time":0.9340157612,"remaining_time":3.8313,
{"le,
{"learn":[0.4474467391],"iteration":196,"passed_time":0.9397039664,"remaining_time":3.830,
{"learn":[0.4535578339],"iteration":197,"passed_time":0.9443440711,"remaining_time":3.825070429},
{"lea,
{"learn":[0.4469978599],"iteration":198,"passed_time":0.9480314844,"remaining_time":3.81,
{"lear,
{"learn":[0.4466316201],"iteration":199,"passed_time":0.9555993858,"remaining_time":3.82,
{"lear,
{"learn":[0.4464003471],"iteration":200,"passed_time":0.9600049237,"remaining_time":3.81,
{"lear,
{"learn":[0.4460253231],"iteration":201,"passed_time":0.9719104132,"remaining_time":3.839527276},
{"learn":[0.4456415894],"iteration":202,"passed_time":0.9778813054,"remaining_time":3.839267982},
{"learn":[0.4453285954],"iteration":203,"passed_time":0.9811627162,"remaining_time":3.828458442},
{"learn":[0.4453071029],"iteration":204,"passed_time":0.9824440139,"remaining_time":3.80996581},
{"learn":[0.4449620692],"iteration":205,"passed_time":0.986273013,"remaining_time":3.80146006},
{"learn":[0.4446415721],"iteration":206,"passed_time":0.990908382,"remaining_time":3.796088632},
{"learn":[0.4443622455],"iteration":207,"passed_time":0.9993594035,"remaining_time":3.805253113},
{"learn":[0.4441002736],"iteration":208,"passed_time":1.006822935,"remaining_time":3.810511683},
{"learn":[0.4440083504],"iteration":209,"passed_time":1.009482393,"remaining_time":3.797576621},
{"learn":[0.4438129339],"iteration":210,"passed_time":1.014375017,"remaining_time":3.79308952},
{"learn":[0.4435816316],"iteration":211,"passed_time":1.019320325,"remaining_time":3.788794417},
{"learn":[0.4432547516],"iteration":212,"passed_time":1.022749523,"remaining_time":3.778891432},
{"learn":[0.4429065009],"iteration":213,"passed_time":1.028526814,"remaining_time":3.777673253},
{"learn":[0.442671133],"iteration":214,"passed_time":1.035802162,"remaining_time":3.781882311},
{"learn":[0.4424373871],"iteration":215,"passed_time":1.038189554,"remaining_time":3.768243566},
{"learn":[0.442083179],"iteration":216,"passed_time":1.041962919,"remaining_time":3.759709518},
{"learn":[0.4418092287],"iteration":217,"passed_time":1.051881242,"remaining_time":3.773262069},
{"learn":[0.4415789603],"iteration":218,"passed_time":1.059822764,"remaining_time":3.779550587},
{"learn":[0.4413308628],"iteration":219,"passed_time":1.065109759,"remaining_time":3.776298237},
{"learn":[0.4410283213],"iteration":220,"passed_time":1.069184064,"remaining_time":3.768752878},
{"learn":[0.4407453728],"iteration":221,"passed_time":1.073080158,"remaining_time":3.760614246},
{"learn":[0.4404962595],"iteration":222,"passed_time":1.075786288,"remaining_time":3.748367471},
{"learn":[0.4402726852],"iteration":223,"passed_time":1.078405839,"remaining_time":3.735905944},
{"learn":[0.4400471275],"iteration":224,"passed_time":1.082035212,"remaining_time":3.727010173},
{"learn":[0.4397984667],"iteration":225,"passed_time":1.085185906,"remaining_time":3.716521643},
{"learn":[0.4396367588],"iteration":226,"passed_time":1.093140715,"remaining_time":3.722457147},
{"learn":[0.439339228],"iteration":227,"passed_time":1.098821204,"remaining_time":3.720570041},
{"learn":[0.4389312384],"iteration":228,"passed_time":1.103813629,"remaining_time":3.716333222},
{"learn":[0.438614279],"iteration":229,"passed_time":1.108745167,"remaining_time":3.711885993},
{"learn":[0.4383604913],"iteration":230,"passed_time":1.113375064,"remaining_time":3.706430407},
{"learn":[0.4380557236],"iteration":231,"passed_time":1.120072075,"remaining_time":3.707824801},
{"learn":[0.4378536283],"iteration":232,"passed_time":1.123262549,"remaining_time":3.697606761},
{"learn":[0.4374175261],"iteration":233,"passed_time":1.126091965,"remaining_time":3.686266861},
{"learn":[0.4371668855],"iteration":234,"passed_time":1.128386453,"remaining_time":3.673258028},
{"learn":[0.4370120758],"iteration":235,"passed_time":1.130782917,"remaining_time":3.66067012},
{"learn":[0.4367508573],"iteration":236,"passed_time":1.136270934,"remaining_time":3.658121194},
{"learn":[0.4363915583],"iteration":237,"passed_time":1.140169535,"remaining_time":3.650458764},
{"learn":[0.4361704514],"iteration":238,"passed_time":1.142360805,"remaining_time":3.637391516},
{"learn":[0.4359178211],"iteration":239,"passed_time":1.147572537,"remaining_time":3.633,
{"lea,
{"learn":[0.4357932373],"iteration":240,"passed_time":1.152934445,"remaining_time":3.63,
{"lear,
{"learn":[0.4355871909],"iteration":241,"passed_time":1.15801192,"remaining_time":3.627161304},
{"learn":[0.4353735544],"iteration":242,"passed_time":1.161210534,"remaining_time":3.61,
{"lea,
{"learn":[0.4350880755],"iteration":243,"passed_time":1.169135486,"remaining_time":3.62240339},
{"learn":[0.4347917734],"iteration":244,"passed_time":1.173600078,"remaining_time":3.6166,
{"le,
{"learn":[0.4346446787],"iteration":245,"passed_time":1.18024099,"remaining_time":3.617486612},
{"learn":[0.4344493607],"iteration":246,"passed_time":1.185496055,"remaining_time":3.6140831,
{,
{"learn":[0.4341313945],"iteration":247,"passed_time":1.193955113,"remaining_time":3.6203800,
,
{"learn":[0.4339240373],"iteration":248,"passed_time":1.202810323,"remaining_time":3.627753223},
{"learn":[0.4337804452],"iteration":249,"passed_time":1.207242218,"remaining_time":3.621726655},
{"learn":[0.4335962903],"iteration":250,"passed_time":1.210979879,"remaining_time":3.6136411,
{,
{"learn":[0.4333816796],"iteration":251,"passed_time":1.214340765,"remaining_time":3.60447,
,
{,
{"learn":[0.4330826822],"iteration":252,"passed_time":1.219961146,"remaining_time":3.602019667},
{"learn":[0.4328625308],"iteration":253,"passed_time":1.225652395,"remaining_time":3.599750734},
{"learn":[0.4325932473],"iteration":254,"passed_time":1.229817663,"remaining_time":3.592996702},
{"learn":[0.4323493358],"iteration":255,"passed_time":1.232456899,"remaining_time":3.581827863},
{"learn":[0.4320984556],"iteration":256,"passed_time":1.235675951,"remaining_time":3.572401678},
{"learn":[0.431918152],"iteration":257,"passed_time":1.238129261,"remaining_time":3.560821364},
{"learn":[0.4316767149],"iteration":258,"passed_time":1.244460322,"remaining_time":3.560405787},
{"learn":[0.4313607012],"iteration":259,"passed_time":1.247076219,"remaining_time":3.549370777},
{"learn":[0.4313499105],"iteration":260,"passed_time":1.248512358,"remaining_time":3.535059894},
{"learn":[0.4311510611],"iteration":261,"passed_time":1.253343349,"remaining_time":3.530409891},
{"learn":[0.4309449369],"iteration":262,"passed_time":1.257086252,"remaining_time":3.522709384},
{"learn":[0.4306416937],"iteration":263,"passed_time":1.264519159,"remaining_time":3.525326141},
{"learn":[0.4304012159],"iteration":264,"passed_time":1.26764122,"remaining_time":3.515910554},
{"learn":[0.4302349168],"iteration":265,"passed_time":1.271266806,"remaining_time":3.507931712},
{"learn":[0.4298299867],"iteration":266,"passed_time":1.27564557,"remaining_time":3.502053194},
{"learn":[0.4295849547],"iteration":267,"passed_time":1.282191369,"remaining_time":3.502104783},
{"learn":[0.4294903872],"iteration":268,"passed_time":1.286046254,"remaining_time":3.494794838},
{"learn":[0.4292557772],"iteration":269,"passed_time":1.289555104,"remaining_time":3.486574912},
{"learn":[0.4291078914],"iteration":270,"passed_time":1.291929723,"remaining_time":3.475338629},
{"learn":[0.4286766129],"iteration":271,"passed_time":1.29839911,"remaining_time":3.475127031},
{"learn":[0.4286672172],"iteration":272,"passed_time":1.299544677,"remaining_time":3.460692236},
{"learn":[0.4284512223],"iteration":273,"passed_time":1.304477201,"remaining_time":3.456388497},
{"learn":[0.4282695652],"iteration":274,"passed_time":1.309098574,"remaining_time":3.451259878},
{"learn":[0.4280958513],"iteration":275,"passed_time":1.312892515,"remaining_time":3.443964424},
{"learn":[0.4278878896],"iteration":276,"passed_time":1.315897937,"remaining_time":3.434636132},
{"learn":[0.4277799285],"iteration":277,"passed_time":1.319217533,"remaining_time":3.426169277},
{"learn":[0.4275042296],"iteration":278,"passed_time":1.323130356,"remaining_time":3.419272353},
{"learn":[0.4272241413],"iteration":279,"passed_time":1.326070014,"remaining_time":3.409894322},
{"learn":[0.4271405196],"iteration":280,"passed_time":1.33025752,"remaining_time":3.403755007},
{"learn":[0.4269033224],"iteration":281,"passed_time":1.334166389,"remaining_time":3.396920097},
{"learn":[0.4266822181],"iteration":282,"passed_time":1.340367493,"remaining_time":3.395913401},
{"learn":[0.4263687501],"iteration":283,"passed_time":1.347332229,"remaining_time":3.396795337},
{"learn":[0.4260958566],"iteration":284,"passed_time":1.351746956,"remaining_time":3.391224819},
{"learn":[0.4258509993],"iteration":285,"passed_time":1.356172931,"remaining_time":3.385690463},
{"learn":[0.4255566747],"iteration":286,"passed_time":1.358805221,"remaining_time":3.375707744},
{"learn":[0.4253191792],"iteration":287,"passed_time":1.366585046,"remaining_time":3.378501921},
{"learn":[0.4251809272],"iteration":288,"passed_time":1.371879445,"remaining_time":3.375108253},
{"learn":[0.424969939],"iteration":289,"passed_time":1.376399807,"remaining_time":3.369806423},
{"learn":[0.4247988352],"iteration":290,"passed_time":1.380430578,"remaining_time":3.363317112},
{"learn":[0.424614996],"iteration":291,"passed_time":1.38400652,"remaining_time":3.355741837},
{"learn":[0.4243305688],"iteration":292,"passed_time":1.389229544,"remaining_time":3.352168218},
{"learn":[0.4240119835],"iteration":293,"passed_time":1.393093529,"remaining_time":3.345319835},
{"learn":[0.4236288574],"iteration":294,"passed_time":1.400107515,"remaining_time":3.346019655},
{"learn":[0.4233972668],"iteration":295,"passed_time":1.40287327,"remaining_time":3.336563454},
{"learn":[0.4231758022],"iteration":296,"passed_time":1.40660561,"remaining_time":3.329440214},
{"learn":[0.4230758604],"iteration":297,"passed_time":1.409687909,"remaining_time":3.320808429},
{"learn":[0.4228942741],"iteration":298,"passed_time":1.414259548,"remaining_time":3.315705496},
{"learn":[0.4226010627],"iteration":299,"passed_time":1.417627278,"remaining_time":3.307796982},
{"learn":[0.4223237967],"iteration":300,"passed_time":1.422462399,"remaining_time":3.303326303},
{"learn":[0.4222348766],"iteration":301,"passed_time":1.426302773,"remaining_time":3.296554091},
{"learn":[0.4220520126],"iteration":302,"passed_time":1.431523326,"remaining_time":3.292976099},
{"learn":[0.4217613093],"iteration":303,"passed_time":1.435057907,"remaining_time":3.285527312},
{"learn":[0.4215461832],"iteration":304,"passed_time":1.44275972,"remaining_time":3.287600018},
{"learn":[0.4213359838],"iteration":305,"passed_time":1.447528662,"remaining_time":3.28295716},
{"learn":[0.4210894056],"iteration":306,"passed_time":1.450887083,"remaining_time":3.275129475},
{"learn":[0.420862378],"iteration":307,"passed_time":1.456370033,"remaining_tim,
{"learn":[0,
{"learn":[0.4206089278],"iteration":308,"passed_time":1.462759926,"remaining_time":3.271090967},
{"learn":[0.42035266],"iteration":309,"passed_time":1.467701811,"remaining_time":3.266820161},
{"learn":[0.4201391688],"iteration":310,"passed_time":1.471613916,"remaining_time":3.260263627},
{"learn":[0.419864778],"iteration":311,"passed_time":1.474803354,"remaining_time":3.252130472},
{"learn":[0.4197724818],"iteration":312,"passed_time":1.480558377,"remaining_time":3.24966008},
{"learn":[0.4195712155],"iteration":313,"passed_time":1.486527876,"remaining_time":3.247637334},
{"learn":[0.4192683779],"iteration":314,"passed_time":1.490749955,"remaining_time":3.241789585},
{"learn":[0.4190063783],"iteration":315,"passed_time":1.494779494,"remaining_time":3.235535361},
{"learn":[0.4186904407],"iteration":316,"passed_time":1.500505847,"remaining_time":3.232951084},
{"learn":[0.4184668756],"iteration":317,"passed_time":1.504086793,"remaining_time":3.225745889},
{"learn":[0.4181914804],"iteration":318,"passed_time":1.507982785,"remaining_time":3.219235978},
{"learn":[0.4179786979],"iteration":319,"passed_time":1.511968835,"remaining_time":3.212933775},
{"learn":[0.4178092439],"iteration":320,"passed_time":1.515020257,"remaining_time":3.204669016},
{"learn":[0.4176177608],"iteration":321,"passed_time":1.518250785,"remaining_time":3.196813765},
{"learn":[0.4174756391],"iteration":322,"passed_time":1.521578305,"remaining_time":3.189190442},
{"learn":[0.4171999104],"iteration":323,"passed_time":1.524089153,"remaining_time":3.179889714},
{"learn":[0.4169662598],"iteration":324,"passed_time":1.531140195,"remaining_time":3.180060405},
{"learn":[0.4168102573],"iteration":325,"passed_time":1.534487165,"remaining_time":3.172528678},
{"learn":[0.4165788489],"iteration":326,"passed_time":1.538567527,"remaining_time":3.166531944},
{"learn":[0.4163955222],"iteration":327,"passed_time":1.545351857,"remaining_time":3.166086732},
{"learn":[0.4162591858],"iteration":328,"passed_time":1.548713785,"remaining_time":3.158622948},
{"learn":[0.4161343678],"iteration":329,"passed_time":1.553981361,"remaining_time":3.155053067},
{"learn":[0.4158633836],"iteration":330,"passed_time":1.556370297,"remaining_time":3.14565477},
{"learn":[0.4157195735],"iteration":331,"passed_time":1.560799267,"remaining_time":3.140403345},
{"learn":[0.415565734],"iteration":332,"passed_time":1.563801218,"remaining_time":3.132298536},
{"learn":[0.4152566569],"iteration":333,"passed_time":1.568302305,"remaining_time":3.127213578},
{"learn":[0.4150884065],"iteration":334,"passed_time":1.573108661,"remaining_time":3.122738089},
{"learn":[0.414849307],"iteration":335,"passed_time":1.579622715,"remaining_time":3.121635366},
{"learn":[0.414541142],"iteration":336,"passed_time":1.583773035,"remaining_time":3.115850215},
{"learn":[0.4142959064],"iteration":337,"passed_time":1.593075733,"remaining_time":3.12016608},
{"learn":[0.4140560115],"iteration":338,"passed_time":1.595387882,"remaining_time":3.110771063},
{"learn":[0.4138602348],"iteration":339,"passed_time":1.597411233,"remaining_time":3.100857099},
{"learn":[0.4136189319],"iteration":340,"passed_time":1.601533199,"remaining_time":3.095045097},
{"learn":[0.4133140931],"iteration":341,"passed_time":1.607680381,"remaining_time":3.093139446},
{"learn":[0.4130922898],"iteration":342,"passed_time":1.612232125,"remaining_time":3.088153079},
{"learn":[0.4128748996],"iteration":343,"passed_time":1.618067278,"remaining_time":3.085616671},
{"learn":[0.4126904867],"iteration":344,"passed_time":1.62272518,"remaining_time":3.080826067},
{"learn":[0.4124494328],"iteration":345,"passed_time":1.628173842,"remaining_time":3.077530904},
{"learn":[0.4121967889],"iteration":346,"passed_time":1.635022658,"remaining_time":3.076858201},
{"learn":[0.4119784566],"iteration":347,"passed_time":1.639730988,"remaining_time":3.072139667},
{"learn":[0.4117514004],"iteration":348,"passed_time":1.648256787,"remaining_time":3.07454203},
{"learn":[0.4114487026],"iteration":349,"passed_time":1.651876528,"remaining_time":3.067770694},
{"learn":[0.4112635768],"iteration":350,"passed_time":1.656553328,"remaining_time":3.062971823},
{"learn":[0.4110296036],"iteration":351,"passed_time":1.659524394,"remaining_time":3.055033544},
{"learn":[0.4107882812],"iteration":352,"passed_time":1.663087943,"remaining_time":3.048209345},
{"learn":[0.4106404676],"iteration":353,"passed_time":1.665984068,"remaining_time":3.040185616},
{"learn":[0.4105091399],"iteration":354,"passed_time":1.670237078,"remaining_time":3.034656099},
{"learn":[0.4102987957],"iteration":355,"passed_time":1.673695845,"remaining_time":3.027696979},
{"learn":[0.4099863077],"iteration":356,"passed_time":1.680149124,"remaining_time":3.026150943},
{"learn":[0.4097431877],"iteration":357,"passed_time":1.685769449,"remaining_time":3.023083761},
{"learn":[0.4095567871],"iteration":358,"passed_time":1.693421542,"remaining_time":3.023630107},
{"learn":[0.4093895982],"iteration":359,"passed_time":1.696733527,"remaining_time":3.01641516},
{"learn":[0.4092574947],"iteration":360,"passed_time":1.700635283,"remaining_time":3.010265777},
{"learn":[0.4090915577],"iteration":361,"passed_time":1.704378008,"remaining_time":3.003848534},
{"learn":[0.4088842493],"iteration":362,"passed_time":1.710839668,"remaining_time":3.002217269},
{"learn":[0.4085928642],"iteration":363,"passed_time":1.713683771,"remaining_time":2.994238676},
{"learn":[0.4084827274],"iteration":364,"passed_time":1.720366085,"remaining_time":2.992965654},
{"learn":[0.4081276475],"iteration":365,"passed_time":1.726388084,"remaining_time":2.99051925},
{"learn":[0.4079422486],"iteration":366,"passed_time":1.731006327,"remaining_time":2.985632166},
{"learn":[0.4077344422],"iteration":367,"passed_time":1.735649622,"remaining_time":2.980789568},
{"learn":[0.4074710046],"iteration":368,"passed_time":1.744098911,"remaining_time":2.982456404},
{"learn":[0.4072154533],"iteration":369,"passed_time":1.746512047,"remaining_time":2.973790783},
{"learn":[0.4068030834],"iteration":370,"passed_time":1.750025469,"remaining_time":2.967024312},
{"learn":[0.406668217],"iteration":371,"passed_time":1.755957648,"remaining_time":2.964358609},
{"learn":[0.4065132406],"iteration":372,"passed_time":1.763623626,"remaining_time":2.964589849},
{"learn":[0.4062740708],"iteration":373,"passed_time":1.767250284,"remaining_time":2.958017855},
{"learn":[0.405920017],"iteration":374,"passed_time":1.773360704,"remaining_time":2.955601173},
{"learn":[0.4057822396],"iteration":375,"passed_time":1.780109051,"remaining_time":2.954223531},
{"learn":[0.4055746121],"iteration":376,"passed_time":1.78606951,"remaining_time":2.951515397},
{"learn":[0.4054255855],"iteration":377,"passed_time":1.790943352,"remaining_time":2.947002024},
{"learn":[0.4052960623],"iteration":378,"passed_time":1.795315714,"remaining_time":2.941665061},
{"learn":[0.4050366485],"iteration":379,"passed_time":1.80051652,"remaining_time":2.937684849},
{"learn":[0.4047907485],"iteration":380,"passed_time":1.804028396,"remaining_time":2.930954271},
{"learn":[0.4045856189],"iteration":381,"passed_time":1.807697765,"remaining_time":2.924495337},
{"learn":[0.4045545232],"iteration":382,"passed_time":1.80917885,"remaining_time":2.914525719},
{"learn":[0.4043868561],"iteration":383,"passed_time":1.81335736,"remaining_time":2.908927431},
{"learn":[0.4042097036],"iteration":384,"passed_time":1.819726763,"remaining_time":2.906836258},
{"learn":[0.4039286402],"iteration":385,"passed_time":1.823635377,"remaining_time":2.900808605},
{"learn":[0.4038080236],"iteration":386,"passed_time":1.830012539,"remaining_time":2.898702031},
{"learn":[0.4036557084],"iteration":387,"passed_time":1.83438143,"remaining_time":2.893405761},
{"learn":[0.4034794014],"iteration":388,"passed_time":1.83929321,"remaining_time":2.88896697},
{"learn":[0.4032834276],"iteration":389,"passed_time":1.84350923,"remaining_time":2.883437514},
{"learn":[0.4031418415],"iteration":390,"passed_time":1.845678003,"remaining_time":2.874726097},
{"learn":[0.4030847916],"iteration":391,"passed_time":1.847411137,"remaining_time":2.865372376},
{"learn":[0.4029475745],"iteration":392,"passed_time":1.850034715,"remaining_time":2.857432753},
{"learn":[0.4028610188],"iteration":393,"passed_time":1.85530949,"remaining_time":2.853597845},
{"learn":[0.4026816869],"iteration":394,"passed_time":1.858755132,"remaining_time":2.846954063},
{"learn":[0.4025385632],"iteration":395,"passed_time":1.86417232,"remaining_time":2.843333538},
{"learn":[0.4023707654],"iteration":396,"passed_time":1.86736003,"remaining_time":2.836317628},
{"learn":[0.402208795],"iteration":397,"passed_time":1.872187003,"remaining_time":2.831800442},
{"learn":[0.402051858],"iteration":398,"passed_time":1.876784284,"remaining_time":2.826935726},
{"learn":[0.4018074897],"iteration":399,"passed_time":1.880852927,"remaining_time":2.82127939},
{"learn":[0.4016938067],"iteration":400,"passed_time":1.883842241,"remaining_time":2.814018709},
{"learn":[0.401547399],"iteration":401,"passed_time":1.888172419,"remaining_time":2.808773897},
{"learn":[0.4013752345],"iteration":402,"passed_time":1.894565718,"remaining_time":2.806589909},
{"learn":[0.4011959536],"iteration":403,"passed_time":1.897305138,"remaining_time":2.798994709},
{"learn":[0.401074218],"iteration":404,"passed_time":1.904036803,"remaining_time":2.797288637},
{"learn":[0.4008120803],"iteration":405,"passed_time":1.908788998,"remaining_time":2.792661735},
{"learn":[0.4005995958],"iteration":406,"passed_time":1.91234814,"remaining_time":2.786295938},
{"learn":[0.4004641604],"iteration":407,"passed_time":1.917173168,"remaining_time":2.781780675},
{"learn":[0.4003434182],"iteration":408,"passed_time":1.921744864,"remaining_time":2.776897835},
{"learn":[0.4001997109],"iteration":409,"passed_time":1.926028902,"remaining_time":2.771602566},
{"learn":[0.3999905643],"iteration":410,"passed_time":1.930095783,"remaining_time":2.766001012},
{"learn":[0.3998505694],"iteration":411,"passed_time":1.933127759,"remaining_time":2.758929909},
{"learn":[0.3996053437],"iteration":412,"passed_time":1.937826407,"remaining_time":2.754247217},
{"learn":[0.3992996804],"iteration":413,"passed_time":1.944079738,"remaining_time":2.751765039},
{"learn":[0.3990269906],"iteration":414,"passed_time":1.949655873,"remaining_time":2.748310086},
{"learn":[0.3987122586],"iteration":415,"passed_time":1.954116189,"remaining_time":2.743278496},
{"learn":[0.3985269962],"iteration":416,"passed_time":1.958503582,"remaining_time":2.738147694},
{"learn":[0.3983036349],"iteration":417,"passed_time":1.9614082,"remaining_time":2.730955915},
{"learn":[0.3980020708],"iteration":418,"passed_time":1.966135649,"remaining_time":2.7263122},
{"learn":[0.3977582806],"iteration":419,"passed_time":1.971337794,"remaining_time":2.72232362},
{"learn":[0.3974634409],"iteration":420,"passed_time":1.975336533,"remaining_time":2.716674234},
{"learn":[0.3972469692],"iteration":421,"passed_time":1.979734713,"remaining_time":2.711579772},
{"learn":[0.39715235],"iteration":422,"passed_time":1.985639096,"remaining_time":2.708543164},
{"learn":[0.3970563566],"iteration":423,"passed_time":1.98920724,"remaining_time":2.702319269},
{"learn":[0.3968421379],"iteration":424,"passed_time":1.995618777,"remaining_time":2.699954815},
{"learn":[0.3966316536],"iteration":425,"passed_time":1.999714763,"remaining_time":2.694451348},
{"learn":[0.3965339526],"iteration":426,"passed_time":2.00290703,"remaining_time":2.687741752},
{"learn":[0.3963626239],"iteration":427,"passed_time":2.005898636,"remaining_time":2.68078042},
{"learn":[0.3962167229],"iteration":428,"passed_time":2.011539157,"remaining_time":2.677363307},
{"learn":[0.3959921046],"iteration":429,"passed_time":2.017687085,"remaining_time":2.674608461},
{"learn":[0.3958903269],"iteration":430,"passed_time":2.023470547,"remaining_time":2.671356708},
{"learn":[0.3956582359],"iteration":431,"passed_time":2.029960616,"remaining_time":2.669022292},
{"learn":[0.3955782383],"iteration":432,"passed_time":2.032659757,"remaining_time":2.661704577},
{"learn":[0.3954436198],"iteration":433,"passed_time":2.037368914,"remaining_time":2.657029505},
{"learn":[0.3952360251],"iteration":434,"passed_time":2.043357383,"remaining_time":2.654015912},
{"learn":[0.3950317945],"iteration":435,"passed_time":2.050914977,"remaining_time":2.653018457},
{"learn":[0.3948967025],"iteration":436,"passed_time":2.054233205,"remaining_time":2.646529278},
{"learn":[0.3946746547],"iteration":437,"passed_time":2.060805186,"remaining_time":2.644229486},
{"learn":[0.3945236463],"iteration":438,"passed_time":2.067193899,"remaining_time":2.64167603},
{"learn":[0.3942240646],"iteration":439,"passed_time":2.071442171,"remaining_time":2.636380945},
{"learn":[0.3940220355],"iteration":440,"passed_time":2.075695829,"remaining_time":2.631097435},
{"learn":[0.393854995],"iteration":441,"passed_time":2.08181546,"remaining_time":2.628174269},
{"learn":[0.3937148663],"iteration":442,"passed_time":2.085576797,"remaining_time":2.622271503},
{"learn":[0.3935883421],"iteration":443,"passed_time":2.093786453,"remaining_time":2.621948801},
{"learn":[0.3934327016],"iteration":444,"passed_time":2.098246078,"remaining_time":2.616913647},
{"learn":[0.3931876126],"iteration":445,"passed_time":2.104266837,"remaining_time":2.613820242},
{"learn":[0.3930397238],"iteration":446,"passed_time":2.108324451,"remaining_time":2.60828506},
{"learn":[0.392902207],"iteration":447,"passed_time":2.112639197,"remaining_time":2.603073297},
{"learn":[0.3927131321],"iteration":448,"passed_time":2.118320409,"remaining_time":2.599542417},
{"learn":[0.3925593944],"iteration":449,"passed_time":2.121835613,"remaining_time":2.593354638},
{"learn":[0.3924257783],"iteration":450,"passed_time":2.124246225,"remaining_time":2.585834097},
{"learn":[0.3923370466],"iteration":451,"passed_time":2.12739794,"remaining_time":2.579234671},
{"learn":[0.392065963],"iteration":452,"passed_time":2.13007931,"remaining_time":2.572082523},
{"learn":[0.3919112853],"iteration":453,"passed_time":2.132859382,"remaining_time":2.565068772},
{"learn":[0.3916849692],"iteration":454,"passed_time":2.135816507,"remaining_time":2.558285707},
{"learn":[0.3913540555],"iteration":455,"passed_time":2.13895771,"remaining_time":2.551739022},
{"learn":[0.3911282171],"iteration":456,"passed_time":2.141881982,"remaining_time":2.544949489},
{"learn":[0.3909086575],"iteration":457,"passed_time":2.144654776,"remaining_time":2.537997574},
{"learn":[0.39080668],"iteration":458,"passed_time":2.147564706,"remaining_time":2.531225503},
{"learn":[0.3908043052],"iteration":459,"passed_time":2.149215936,"remaining_time":2.52299262},
{"learn":[0.3905705316],"iteration":460,"passed_time":2.15388245,"remaining_time":2.518313754},
{"learn":[0.3904518984],"iteration":461,"passed_time":2.156660621,"remaining_time":2.511435961},
{"learn":[0.390308764],"iteration":462,"passed_time":2.158958702,"remaining_time":2.504019056},
{"learn":[0.3901376494],"iteration":463,"passed_time":2.163790131,"remaining_time":2.499550669},
{"learn":[0.3899862423],"iteration":464,"passed_time":2.168253775,"remaining_time":2.49465757},
{"learn":[0.3898593621],"iteration":465,"passed_time":2.171195141,"remaining_time":2.4880219},
{"learn":[0.3897658981],"iteration":466,"passed_time":2.174702913,"remaining_time":2.482048507},
{"learn":[0.3896189298],"iteration":467,"passed_time":2.177829783,"remaining_time":2.475652659},
{"learn":[0.3894929753],"iteration":468,"passed_time":2.181547499,"remaining_time":2.469939705},
{"learn":[0.3892702545],"iteration":469,"passed_time":2.185814521,"remaining_time":2.464854672},
{"learn":[0.3891842265],"iteration":470,"passed_time":2.194475847,"remaining_time":2.464708542},
{"learn":[0.3889673172],"iteration":471,"passed_time":2.197780257,"remaining_time":2.458533847},
{"learn":[0.38890243],"iteration":472,"passed_time":2.200593192,"remaining_time":2.451823704},
{"learn":[0.3887776654],"iteration":473,"passed_time":2.203515993,"remaining_time":2.445251925},
{"learn":[0.3885379133],"iteration":474,"passed_time":2.207386374,"remaining_time":2.439742834},
{"learn":[0.3884222384],"iteration":475,"passed_time":2.210751814,"remaining_time":2.43368477},
{"learn":[0.3883248162],"iteration":476,"passed_time":2.213304161,"remaining_time":2.426746491},
{"learn":[0.3881592911],"iteration":477,"passed_time":2.216092649,"remaining_time":2.42008444},
{"learn":[0.3879324473],"iteration":478,"passed_time":2.219034411,"remaining_time":2.413605278},
{"learn":[0.387798932],"iteration":479,"passed_time":2.223593171,"remaining_time":2.408892602},
{"learn":[0.3875173818],"iteration":480,"passed_time":2.227675656,"remaining_time":2.403666664},
{"learn":[0.3872651976],"iteration":481,"passed_time":2.23151275,"remaining_time":2.398181752},
{"learn":[0.3870638487],"iteration":482,"passed_time":2.234557818,"remaining_time":2.391855884},
{"learn":[0.3868754779],"iteration":483,"passed_time":2.237354567,"remaining_time":2.385278836},
{"learn":[0.386700942],"iteration":484,"passed_time":2.240728535,"remaining_time":2.3793303},
{"learn":[0.3864902037],"iteration":485,"passed_time":2.244344564,"remaining_time":2.373648366},
{"learn":[0.3862926179],"iteration":486,"passed_time":2.254530585,"remaining_time":2.374895668},
{"learn":[0.38620594],"iteration":487,"passed_time":2.26001741,"remaining_time":2.371165807},
{"learn":[0.3860822022],"iteration":488,"passed_time":2.26258677,"remaining_time":2.36438004},
{"learn":[0.3858905928],"iteration":489,"passed_time":2.265712214,"remaining_time":2.358190264},
{"learn":[0.385746861],"iteration":490,"passed_time":2.268981325,"remaining_time":2.352161903},
{"learn":[0.3855650359],"iteration":491,"passed_time":2.27203529,"remaining_time":2.345922617},
{"learn":[0.3853905615],"iteration":492,"passed_time":2.274370765,"remaining_time":2.338957358},
{"learn":[0.3852921759],"iteration":493,"passed_time":2.284063598,"remaining_time":2.339546924},
{"learn":[0.3851236654],"iteration":494,"passed_time":2.286377046,"remaining_time":2.332566481},
{"learn":[0.3848565501],"iteration":495,"passed_time":2.289078465,"remaining_time":2.325999086},
{"learn":[0.3848518427],"iteration":496,"passed_time":2.290317944,"remaining_time":2.317967658},
{"learn":[0.3846824748],"iteration":497,"passed_time":2.292273175,"remaining_time":2.310685008},
{"learn":[0.3844660769],"iteration":498,"passed_time":2.294797426,"remaining_time":2.30399501},
{"learn":[0.3843383159],"iteration":499,"passed_time":2.296974966,"remaining_time":2.296974966},
{"learn":[0.3842021652],"iteration":500,"passed_time":2.30071587,"remaining_time":2.291531375},
{"learn":[0.3840232087],"iteration":501,"passed_time":2.304001914,"remaining_time":2.285643333},
{"learn":[0.3838054988],"iteration":502,"passed_time":2.305950802,"remaining_time":2.278444431},
{"learn":[0.3836714553],"iteration":503,"passed_time":2.308087633,"remaining_time":2.271451321},
{"learn":[0.3835363867],"iteration":504,"passed_time":2.310344194,"remaining_time":2.264594804},
{"learn":[0.383445177],"iteration":505,"passed_time":2.312778295,"remaining_time":2.257929798},
{"learn":[0.3832244441],"iteration":506,"passed_time":2.316560022,"remaining_time":2.252591895},
{"learn":[0.3830691415],"iteration":507,"passed_time":2.320450928,"remaining_time":2.24736586},
{"learn":[0.382853712],"iteration":508,"passed_time":2.32268434,"remaining_time":2.240546191},
{"learn":[0.3826405907],"iteration":509,"passed_time":2.325228564,"remaining_time":2.23404313},
{"learn":[0.3825178333],"iteration":510,"passed_time":2.327930248,"remaining_time":2.227706245},
{"learn":[0.3822041767],"iteration":511,"passed_time":2.330626843,"remaining_time":2.22137871},
{"learn":[0.3820692496],"iteration":512,"passed_time":2.333616607,"remaining_time":2.215343641},
{"learn":[0.381809368],"iteration":513,"passed_time":2.335888052,"remaining_time":2.208641232},
{"learn":[0.3815902153],"iteration":514,"passed_time":2.338019317,"remaining_time":2.201824017},
{"learn":[0.3814351159],"iteration":515,"passed_time":2.342150477,"remaining_time":2.196900835},
{"learn":[0.3813390693],"iteration":516,"passed_time":2.344617475,"remaining_time":2.190425997},
{"learn":[0.3812124723],"iteration":517,"passed_time":2.347379873,"remaining_time":2.184241504},
{"learn":[0.3809868959],"iteration":518,"passed_time":2.349286428,"remaining_time":2.177277017},
{"learn":[0.3807180703],"iteration":519,"passed_time":2.352232977,"remaining_time":2.171291979},
{"learn":[0.3804361542],"iteration":520,"passed_time":2.35574867,"remaining_time":2.165841868},
{"learn":[0.3802856812],"iteration":521,"passed_time":2.358824811,"remaining_time":2.159996666},
{"learn":[0.3801439543],"iteration":522,"passed_time":2.36094302,"remaining_time":2.153288376},
{"learn":[0.3800083451],"iteration":523,"passed_time":2.363598433,"remaining_time":2.147085599},
{"learn":[0.3797726891],"iteration":524,"passed_time":2.366768146,"remaining_time":2.141361656},
{"learn":[0.3796681903],"iteration":525,"passed_time":2.370569129,"remaining_time":2.136216288},
{"learn":[0.379514718],"iteration":526,"passed_time":2.373131983,"remaining_time":2.129964759},
{"learn":[0.3792967388],"iteration":527,"passed_time":2.377672319,"remaining_time":2.125494951},
{"learn":[0.3790717972],"iteration":528,"passed_time":2.380115647,"remaining_time":2.119157788},
{"learn":[0.3789023698],"iteration":529,"passed_time":2.382369516,"remaining_time":2.112667306},
{"learn":[0.37864703],"iteration":530,"passed_time":2.384806862,"remaining_time":2.106354836},
{"learn":[0.3784470803],"iteration":531,"passed_time":2.386988474,"remaining_time":2.099831966},
{"learn":[0.3782264651],"iteration":532,"passed_time":2.390178211,"remaining_time":2.094208676},
{"learn":[0.3780767084],"iteration":533,"passed_time":2.406432355,"remaining_time":2.099995276},
{"learn":[0.3778538053],"iteration":534,"passed_time":2.408571299,"remaining_time":2.093431129},
{"learn":[0.3777634449],"iteration":535,"passed_time":2.410716485,"remaining_time":2.086888897},
{"learn":[0.3776682438],"iteration":536,"passed_time":2.421524016,"remaining_time":2.087831693},
{"learn":[0.3775069696],"iteration":537,"passed_time":2.424372623,"remaining_time":2.081896193},
{"learn":[0.3773369957],"iteration":538,"passed_time":2.426572332,"remaining_time":2.075417153},
{"learn":[0.3771460421],"iteration":539,"passed_time":2.428690301,"remaining_time":2.068884331},
{"learn":[0.3770029052],"iteration":540,"passed_time":2.430926817,"remaining_time":2.062468409},
{"learn":[0.376849495],"iteration":541,"passed_time":2.433380999,"remaining_time":2.056251841},
{"learn":[0.376848899],"iteration":542,"passed_time":2.434180515,"remaining_time":2.04865653},
{"learn":[0.3767310146],"iteration":543,"passed_time":2.436640184,"remaining_time":2.042477801},
{"learn":[0.3766617472],"iteration":544,"passed_time":2.439546443,"remaining_time":2.036685562},
{"learn":[0.3765388366],"iteration":545,"passed_time":2.442289676,"remaining_time":2.030768339},
{"learn":[0.3763834963],"iteration":546,"passed_time":2.444421481,"remaining_time":2.024356364},
{"learn":[0.3761866751],"iteration":547,"passed_time":2.447625194,"remaining_time":2.018844138},
{"learn":[0.3759962281],"iteration":548,"passed_time":2.450619836,"remaining_time":2.013168572},
{"learn":[0.3758616157],"iteration":549,"passed_time":2.453401212,"remaining_time":2.007328264},
{"learn":[0.375627089],"iteration":550,"passed_time":2.456043131,"remaining_time":2.001385419},
{"learn":[0.3755580737],"iteration":551,"passed_time":2.468626265,"remaining_time":2.003522765},
{"learn":[0.3753869592],"iteration":552,"passed_time":2.471314455,"remaining_time":1.99760861},
{"learn":[0.3750903747],"iteration":553,"passed_time":2.473536462,"remaining_time":1.991330798},
{"learn":[0.3749469358],"iteration":554,"passed_time":2.475787816,"remaining_time":1.985091132},
{"learn":[0.3748336174],"iteration":555,"passed_time":2.477890183,"remaining_time":1.978746837},
{"learn":[0.374602569],"iteration":556,"passed_time":2.480298127,"remaining_time":1.972660809},
{"learn":[0.3744759796],"iteration":557,"passed_time":2.483298299,"remaining_time":1.967057076},
{"learn":[0.3743094492],"iteration":558,"passed_time":2.486300534,"remaining_time":1.961464285},
{"learn":[0.374111589],"iteration":559,"passed_time":2.488696863,"remaining_time":1.955404678},
{"learn":[0.3739910137],"iteration":560,"passed_time":2.490826511,"remaining_time":1.949149445},
{"learn":[0.3738347622],"iteration":561,"passed_time":2.4933032,"remaining_time":1.943179362},
{"learn":[0.3735681126],"iteration":562,"passed_time":2.496148634,"remaining_time":1.93750791},
{"learn":[0.3733537598],"iteration":563,"passed_time":2.498590728,"remaining_time":1.931534676},
{"learn":[0.3732169643],"iteration":564,"passed_time":2.501709277,"remaining_time":1.926094753},
{"learn":[0.3730215395],"iteration":565,"passed_time":2.503729362,"remaining_time":1.919820747},
{"learn":[0.3728535207],"iteration":566,"passed_time":2.506925375,"remaining_time":1.914459766},
{"learn":[0.3726963914],"iteration":567,"passed_time":2.509059281,"remaining_time":1.908298608},
{"learn":[0.3724845843],"iteration":568,"passed_time":2.511001076,"remaining_time":1.902006088},
{"learn":[0.3723634379],"iteration":569,"passed_time":2.513333111,"remaining_time":1.896023224},
{"learn":[0.3721707302],"iteration":570,"passed_time":2.51582947,"remaining_time":1.890176607},
{"learn":[0.37193262],"iteration":571,"passed_time":2.518266611,"remaining_time":1.884297394},
{"learn":[0.3717645838],"iteration":572,"passed_time":2.5206424,"remaining_time":1.878384476},
{"learn":[0.3717548882],"iteration":573,"passed_time":2.522003816,"remaining_time":1.871731055},
{"learn":[0.3716110649],"iteration":574,"passed_time":2.527297721,"remaining_time":1.868002663},
{"learn":[0.3714164175],"iteration":575,"passed_time":2.542761193,"remaining_time":1.871754767},
{"learn":[0.3712935869],"iteration":576,"passed_time":2.544947999,"remaining_time":1.865707112},
{"learn":[0.3711564286],"iteration":577,"passed_time":2.547102957,"remaining_time":1.859649564},
{"learn":[0.370885867],"iteration":578,"passed_time":2.549783901,"remaining_time":1.853987949},
{"learn":[0.3707608939],"iteration":579,"passed_time":2.55227897,"remaining_time":1.848202013},
{"learn":[0.3705309832],"iteration":580,"passed_time":2.554379746,"remaining_time":1.842143052},
{"learn":[0.3703988939],"iteration":581,"passed_time":2.556862279,"remaining_time":1.836371878},
{"learn":[0.3702518742],"iteration":582,"passed_time":2.56009625,"remaining_time":1.831149462},
{"learn":[0.3700925091],"iteration":583,"passed_time":2.573651093,"remaining_time":1.83328571},
{"learn":[0.3698886112],"iteration":584,"passed_time":2.590987799,"remaining_time":1.838051174},
{"learn":[0.3697284233],"iteration":585,"passed_time":2.593583782,"remaining_time":1.832327109},
{"learn":[0.3695450869],"iteration":586,"passed_time":2.59659669,"remaining_time":1.826907041},
{"learn":[0.369421037],"iteration":587,"passed_time":2.5999484,"remaining_time":1.821732553},
{"learn":[0.3692398902],"iteration":588,"passed_time":2.603564774,"remaining_time":1.816748934},
{"learn":[0.3691181088],"iteration":589,"passed_time":2.60598556,"remaining_time":1.810939118},
{"learn":[0.3689883542],"iteration":590,"passed_time":2.609054758,"remaining_time":1.805589503},
{"learn":[0.3687307554],"iteration":591,"passed_time":2.61126447,"remaining_time":1.799655243},
{"learn":[0.3685434948],"iteration":592,"passed_time":2.613964954,"remaining_time":1.794070382},
{"learn":[0.3684329483],"iteration":593,"passed_time":2.616260425,"remaining_time":1.788218405},
{"learn":[0.3683172648],"iteration":594,"passed_time":2.618671479,"remaining_time":1.782457057},
{"learn":[0.3682193172],"iteration":595,"passed_time":2.635980108,"remaining_time":1.786805308},
{"learn":[0.3681323579],"iteration":596,"passed_time":2.652642756,"remaining_time":1.790644943},
{"learn":[0.3678852148],"iteration":597,"passed_time":2.655563956,"remaining_time":1.785178445},
{"learn":[0.3677604172],"iteration":598,"passed_time":2.657876906,"remaining_time":1.779313254},
{"learn":[0.3675090614],"iteration":599,"passed_time":2.660095748,"remaining_time":1.773397165},
{"learn":[0.3673037321],"iteration":600,"passed_time":2.662460987,"remaining_time":1.767590572},
{"learn":[0.3670622372],"iteration":601,"passed_time":2.664842198,"remaining_time":1.761805972},
{"learn":[0.3668460978],"iteration":602,"passed_time":2.668326584,"remaining_time":1.756758961},
{"learn":[0.3667070597],"iteration":603,"passed_time":2.671416511,"remaining_time":1.751458507},
{"learn":[0.3666070453],"iteration":604,"passed_time":2.674776312,"remaining_time":1.746341559},
{"learn":[0.3663933115],"iteration":605,"passed_time":2.677117388,"remaining_time":1.740568071},
{"learn":[0.3662032657],"iteration":606,"passed_time":2.679370489,"remaining_time":1.734748933},
{"learn":[0.3659527651],"iteration":607,"passed_time":2.700556317,"remaining_time":1.741148152},
{"learn":[0.3657838218],"iteration":608,"passed_time":2.703430287,"remaining_time":1.735699905},
{"learn":[0.3657020507],"iteration":609,"passed_time":2.705713898,"remaining_time":1.729882656},
{"learn":[0.3654654835],"iteration":610,"passed_time":2.708637295,"remaining_time":1.7244843},
{"learn":[0.3652170898],"iteration":611,"passed_time":2.711646899,"remaining_time":1.719148688},
{"learn":[0.3650901189],"iteration":612,"passed_time":2.728534126,"remaining_time":1.722581903},
{"learn":[0.3649604065],"iteration":613,"passed_time":2.73090579,"remaining_time":1.71682351},
{"learn":[0.3647870175],"iteration":614,"passed_time":2.732950425,"remaining_time":1.710871404},
{"learn":[0.364611903],"iteration":615,"passed_time":2.735437414,"remaining_time":1.705207739},
{"learn":[0.3643514881],"iteration":616,"passed_time":2.737516276,"remaining_time":1.699301027},
{"learn":[0.3641102005],"iteration":617,"passed_time":2.739803346,"remaining_time":1.693535401},
{"learn":[0.3639148579],"iteration":618,"passed_time":2.744755041,"remaining_time":1.689421116},
{"learn":[0.3638098206],"iteration":619,"passed_time":2.747498461,"remaining_time":1.68395067},
{"learn":[0.3636464665],"iteration":620,"passed_time":2.75026173,"remaining_time":1.67850112},
{"learn":[0.3635489314],"iteration":621,"passed_time":2.752723767,"remaining_time":1.672877145},
{"learn":[0.3634419792],"iteration":622,"passed_time":2.755268244,"remaining_time":1.667313207},
{"learn":[0.3633232673],"iteration":623,"passed_time":2.757940737,"remaining_time":1.661836085},
{"learn":[0.3630803843],"iteration":624,"passed_time":2.760361142,"remaining_time":1.656216685},
{"learn":[0.3628620341],"iteration":625,"passed_time":2.763203344,"remaining_time":1.650859506},
{"learn":[0.3627250248],"iteration":626,"passed_time":2.766583739,"remaining_time":1.645830518},
{"learn":[0.3626003299],"iteration":627,"passed_time":2.768624551,"remaining_time":1.640013269},
{"learn":[0.362415995],"iteration":628,"passed_time":2.771368172,"remaining_time":1.634622563},
{"learn":[0.362326649],"iteration":629,"passed_time":2.775259025,"remaining_time":1.629914031},
{"learn":[0.3621487689],"iteration":630,"passed_time":2.777484641,"remaining_time":1.624234283},
{"learn":[0.3620544781],"iteration":631,"passed_time":2.780110603,"remaining_time":1.618798579},
{"learn":[0.3618103615],"iteration":632,"passed_time":2.782547745,"remaining_time":1.613262279},
{"learn":[0.3616670066],"iteration":633,"passed_time":2.785125355,"remaining_time":1.607816845},
{"learn":[0.3614617458],"iteration":634,"passed_time":2.787546462,"remaining_time":1.602290486},
{"learn":[0.361338107],"iteration":635,"passed_time":2.790280687,"remaining_time":1.596953098},
{"learn":[0.3611393436],"iteration":636,"passed_time":2.79283563,"remaining_time":1.591521717},
{"learn":[0.3609201332],"iteration":637,"passed_time":2.796378202,"remaining_time":1.586659732},
{"learn":[0.3607561669],"iteration":638,"passed_time":2.798704354,"remaining_time":1.581114667},
{"learn":[0.3605923886],"iteration":639,"passed_time":2.800713362,"remaining_time":1.575401266},
{"learn":[0.3604655097],"iteration":640,"passed_time":2.803531239,"remaining_time":1.570152441},
{"learn":[0.3602746244],"iteration":641,"passed_time":2.806025019,"remaining_time":1.564730462},
{"learn":[0.3600942596],"iteration":642,"passed_time":2.808380992,"remaining_time":1.559241079},
{"learn":[0.3598907454],"iteration":643,"passed_time":2.820100421,"remaining_time":1.5589375},
{"learn":[0.3597834507],"iteration":644,"passed_time":2.822706993,"remaining_time":1.553582918},
{"learn":[0.3595487068],"iteration":645,"passed_time":2.825595371,"remaining_time":1.548391271},
{"learn":[0.359381157],"iteration":646,"passed_time":2.828513414,"remaining_time":1.543222929},
{"learn":[0.3591570705],"iteration":647,"passed_time":2.83161634,"remaining_time":1.538161963},
{"learn":[0.3590743526],"iteration":648,"passed_time":2.833654289,"remaining_time":1.532531056},
{"learn":[0.3589675775],"iteration":649,"passed_time":2.836588709,"remaining_time":1.52739392},
{"learn":[0.3588192859],"iteration":650,"passed_time":2.839442182,"remaining_time":1.522220156},
{"learn":[0.3586448061],"iteration":651,"passed_time":2.849859469,"remaining_time":1.521090637},
{"learn":[0.3585118869],"iteration":652,"passed_time":2.852924096,"remaining_time":1.516025515},
{"learn":[0.3584152061],"iteration":653,"passed_time":2.855622928,"remaining_time":1.510772986},
{"learn":[0.358199602],"iteration":654,"passed_time":2.858363166,"remaining_time":1.505550065},
{"learn":[0.3579404902],"iteration":655,"passed_time":2.861409546,"remaining_time":1.50049525},
{"learn":[0.3577953741],"iteration":656,"passed_time":2.863908045,"remaining_time":1.495160517},
{"learn":[0.3576084805],"iteration":657,"passed_time":2.881292101,"remaining_time":1.497571274},
{"learn":[0.3574347375],"iteration":658,"passed_time":2.884413648,"remaining_time":1.492541812},
{"learn":[0.3572780067],"iteration":659,"passed_time":2.887006867,"remaining_time":1.487245962},
{"learn":[0.3571481145],"iteration":660,"passed_time":2.889868861,"remaining_time":1.482096133},
{"learn":[0.3570081017],"iteration":661,"passed_time":2.892436759,"remaining_time":1.476803058},
{"learn":[0.3567363515],"iteration":662,"passed_time":2.895256483,"remaining_time":1.471646206},
{"learn":[0.3565985195],"iteration":663,"passed_time":2.897722264,"remaining_time":1.46631729},
{"learn":[0.3565217804],"iteration":664,"passed_time":2.899831283,"remaining_time":1.460817263},
{"learn":[0.3563831111],"iteration":665,"passed_time":2.902170118,"remaining_time":1.455442672},
{"learn":[0.3561734781],"iteration":666,"passed_time":2.904989671,"remaining_time":1.450317182},
{"learn":[0.3560734676],"iteration":667,"passed_time":2.90734754,"remaining_time":1.444969137},
{"learn":[0.3559442318],"iteration":668,"passed_time":2.910099336,"remaining_time":1.439824933},
{"learn":[0.3557036031],"iteration":669,"passed_time":2.913170894,"remaining_time":1.434845366},
{"learn":[0.3555635675],"iteration":670,"passed_time":2.91544126,"remaining_time":1.429478651},
{"learn":[0.3554775513],"iteration":671,"passed_time":2.917688911,"remaining_time":1.424110064},
{"learn":[0.355294462],"iteration":672,"passed_time":2.919804693,"remaining_time":1.418686678},
{"learn":[0.3551714708],"iteration":673,"passed_time":2.921990137,"remaining_time":1.413306802},
{"learn":[0.3549789613],"iteration":674,"passed_time":2.924354455,"remaining_time":1.408022515},
{"learn":[0.3548128223],"iteration":675,"passed_time":2.926859774,"remaining_time":1.402814448},
{"learn":[0.3546292333],"iteration":676,"passed_time":2.929828501,"remaining_time":1.397835459},
{"learn":[0.3544497121],"iteration":677,"passed_time":2.932432696,"remaining_time":1.392689274},
{"learn":[0.3542710653],"iteration":678,"passed_time":2.934669051,"remaining_time":1.38737668},
{"learn":[0.3541179789],"iteration":679,"passed_time":2.937015156,"remaining_time":1.382124779},
{"learn":[0.3540021517],"iteration":680,"passed_time":2.939884115,"remaining_time":1.377126333},
{"learn":[0.353858694],"iteration":681,"passed_time":2.94213518,"remaining_time":1.371846022},
{"learn":[0.3536097108],"iteration":682,"passed_time":2.944653625,"remaining_time":1.366698681},
{"learn":[0.3534587959],"iteration":683,"passed_time":2.946858563,"remaining_time":1.36141419},
{"learn":[0.3533062052],"iteration":684,"passed_time":2.949121944,"remaining_time":1.356165566},
{"learn":[0.3531905977],"iteration":685,"passed_time":2.951131299,"remaining_time":1.35080937},
{"learn":[0.3530308245],"iteration":686,"passed_time":2.953683898,"remaining_time":1.345710422},
{"learn":[0.3529542691],"iteration":687,"passed_time":2.956637526,"remaining_time":1.340800738},
{"learn":[0.3527411442],"iteration":688,"passed_time":2.969947396,"remaining_time":1.340571321},
{"learn":[0.3525488399],"iteration":689,"passed_time":2.973049605,"remaining_time":1.335717938},
{"learn":[0.3523748121],"iteration":690,"passed_time":2.975211872,"remaining_time":1.330449303},
{"learn":[0.3522379937],"iteration":691,"passed_time":2.978022031,"remaining_time":1.325478014},
{"learn":[0.3521219721],"iteration":692,"passed_time":2.980858856,"remaining_time":1.320524774},
{"learn":[0.3519362228],"iteration":693,"passed_time":2.982870062,"remaining_time":1.315213601},
{"learn":[0.3517672039],"iteration":694,"passed_time":2.985030954,"remaining_time":1.309977613},
{"learn":[0.3516660711],"iteration":695,"passed_time":2.987522565,"remaining_time":1.304894913},
{"learn":[0.3515430434],"iteration":696,"passed_time":2.989562854,"remaining_time":1.29962345},
{"learn":[0.35141951],"iteration":697,"passed_tim,
{"learn":[0.3582511917],"iteration":697,"passed_time":2.994166191,"remaining_time":1.295470186},
{"learn":[0.3579775172],"iteration":698,"passed_time":2.996937189,"remaining_time":1.290526601},
{"learn":[0.3578537471],"iteration":699,"passed_time":2.999709634,"remaining_time":1.285589843},
{"learn":[0.3577427216],"iteration":700,"passed_time":3.001983071,"remaining_time":1.280446417},
{"learn":[0.3575121197],"iteration":701,"passed_time":3.004129686,"remaining_time":1.275257331},
{"learn":[0.3574102092],"iteration":702,"passed_time":3.006885865,"remaining_time":1.270334427},
{"learn":[0.3573049809],"iteration":703,"passed_time":3.009208948,"remaining_time":1.26523558},
{"learn":[0.3571427028],"iteration":704,"passed_time":3.012007894,"remaining_time":1.260343729},
{"learn":[0.3570256847],"iteration":705,"passed_time":3.014313032,"remaining_time":1.255252169},
{"learn":[0.356921451],"iteration":706,"passed_time":3.016392078,"remaining_time":1.250074793},
{"learn":[0.3568180209],"iteration":707,"p,
{"learn":[0.3499883025],"iteration":708,"passed_time":3.033734399,"remaining_time":1.24515756},
{"learn":[0.3498976994],"iteration":709,"passed_time":3.036463148,"remaining_time":1.240245511},
{"learn":[0.3496780515],"iteration":710,"passed_time":3.038998902,"remaining_time":1.235261157},
{"learn":[0.3495475658],"iteration":711,"passed_time":3.041819242,"remaining_time":1.230398794},
{"learn":[0.349445673],"iteration":712,"passed_time":3.043798105,"remaining_time":1.225203445},
{"learn":[0.3493262948],"iteration":713,"passed_time":3.045919948,"remaining_time":1.220074377},
{"learn":[0.3491535336],"iteration":714,"passed_time":3.049213904,"remaining_time":1.215420927},
{"learn":[0.349071772],"iteration":715,"passed_time":3.051416019,"remaining_time":1.210338197},
{"learn":[0.3489220045],"iteration":716,"passed_time":3.054047516,"remaining_time":1.20543298},
{"learn":[0.3488358522],"iteration":717,"passed_time":,
{"learn":[0.3550707393],"iteration":717,"passed_time":3.055382908,"remaining_time":1.200025042},
{"learn":[0.354981973],"iteration":718,"passed_time":3.057522267,"remaining_time":1.194942639},
{"learn":[0.3547038723],"iteration":719,"passed_time":3.059942859,"remaining_time":1.189977779},
{"learn":[0.354568463],"iteration":720,"passed_time":3.062668263,"remaining_time":1.185137927},
{"learn":[0.3544430542],"iteration":721,"passed_time":3.06556237,"remaining_time":1.18036889},
{"learn":[0.3542707154],"iteration":722,"passed_time":3.068167167,"remaining_time":1.175494198},
{"learn":[0.3540860792],"iteration":723,"passed_time":3.070895381,"remaining_time":1.170672825},
{"learn":[0.3538651308],"iteration":724,"passed_time":3.07304013,"remaining_time":1.165635911},
{"learn":[0.3537607086],"iteration":725,"passed_time":3.075348278,"remaining_time":1.160668634},
{"learn":[0.3535670515],"iteration":726,"passed_time":3.077702897,"remaining_time":1.155726122},
{"learn":[0.3534528269],"iteration":727,"passed_time":3.079893657,"remaining_time":1.150729498},
{"learn":[0.3533510788],"iteration":728,"passed_time":3.081886861,"remaining_time":1.145667132},
{"learn":[0.3532110057],"iteration":729,"passed_time":3.086653906,"remaining_time":1.141639116},
{"learn":[0.3530240964],"iteration":730,"passed_time":3.088917176,"remaining_time":1.136687716},
{"learn":[0.3529490911],"iteration":731,"passed_time":3.092060307,"remaining_time":1.132065795},
{"learn":[0.3527497631],"iteration":732,"passed_time":3.09424616,"remaining_time":1.127099215},
{"learn":[0.3525937468],"iteration":733,"passed_time":3.096678656,"remaining_time":1.122229595},
{"learn":[0.3524364658],"iteration":734,"passed_time":3.098702946,"remaining_time":1.117219429},
{"learn":[0.3523686313],"iteration":73,
{"learn":[0.3464175534],"iteration":736,"passed_time":3,
{"learn":[0.352200153],"iteration":736,"passed_time":3.10418305,"remaining_time":1.10773425},
{"learn":[0.3519651281],"iteration":737,"passed_time":3.106741396,"remaining_time":1.102935292},
{"learn":[0.3518000328],"iteration":738,"passed_time":3.109140098,"remaining_time":1.098086016},
{"learn":[0.3516694539],"iteration":739,"passed_time":3.111632486,"remaining_time":1.093276279},
{"learn":[0.3514942654],"iteration":740,"passed_time":3.113972792,"remaining_time":1.08841964},
{"learn":[0.3514025438],"iteration":741,"passed_time":3.116015673,"remaining_time":1.083466366},
{"learn":[0.3512269896],"iteration":742,"passed_time":3.118641853,"remaining_time":1.078722687},
{"learn":[0.3511231646],"iteration":743,"passed_time":3.120529093,"remaining_time":1.07373044},
{"learn":[0.3510064408],"iteration":744,,
{"learn":[0.3450302436],"iteration":745,"passed_time,
{"learn":[0.3508397207],"iteration":745,"passed_time":3.125371585,"remaining_time":1.064134561},
{"learn":[0.3507360468],"iteration":746,"passed_time":3.127739287,"remaining_time":1.059328032},
{"learn":[0.3506380906],"iteration":747,,
{"learn":[0.3446650766],"iteration":748,"passed_time",
{"learn":[0.3505616122],"iteration":748,"passed_time":3.132606926,"remaining_time":1.049778823},
{"learn":[0.3504094583],"iteration":749,"passed_time":3.134997713,"remaining_time":1.044999238},
{"learn":[0.3502822743],"iteration":750,"passed_time":3.137800168,"remaining_time":1.040362506},
{"learn":[0.350129442],"iteration":751,"passed_time":3.14006784,"remaining_time":1.035554288},
{"learn":[0.3500027093],"iteration":752,"passed_time":3.142572892,"remaining_time":1.030830683},
{"learn":[0.3498902226],"iteration":753,"passed_time":3.145230406,"remaining_time":1.026162705},
{"learn":[0.3498051643],"iteration":754,"passed_time":3.147519009,"remaining_time":1.021380341},
{"learn":[0.3495790891],"iteration":755,"passed_time":3.150180131,"remaining_time":1.016724804},
{"learn":[0.3495134422],"iteration":756,"p,
{"learn":[0.3436089512],"iteration":757,"passed_tim,
{"learn":[0.3493883297],"iteration":757,"passed_time":3.155463814,"remaining_time":1.007417207},
{"learn":[0.349267744],"iteration":758,"passed_time":3.157956747,"remaining_time":1.002724079},
{"learn":[0.3491067919],"iteration":759,"passed_time":3.160912388,"remaining_time":0.9981828594},
{"learn":[0.3490104766],"iteration":760,"pa,
{"learn":[0.3428556112],"iteration":761,"passed_time":3.184736574,"remaining_time":0.994707749},
{"learn":[0.3427507387],"iteration":762,"passed_time":3.187049664,"remaining_time":0.989948585},
{"learn":[0.3425662632],"iteration":763,"passed_time":3.189456602,"remaining_time":0.9852248142},
{"learn":[0.3424398172],"iteration":764,"passed_time":3.191597809,"remaining_time":0.9804254707},
{"learn":[0.3423666095],"iteration":765,"passed_time":3.194548787,"remaining_time":0.9758804387},
{"learn":[0.3422384422],"iteration":766,"passed_time":3.196934757,"remaining_time":0.9711679248},
{"learn":[0.3421694692],"iteration":767,"passed_time":3.199172796,"remaining_time":0.9664167822},
{"learn":[0.3419915074],"iteration":768,"passed_time":3.201872439,"remaining_time":0.9618108365},
{"learn":[0.3418166251],"iteration":769,"passed_time":3.203768229,"remaining_time":0.9569697308},
{"learn":[0.3416577533],"iteration":770,"passed_time":3.2061212,"remaining_time":0.9522720554},
{"learn":[0.3415188221],"iteration":771,"passed_time":3.208319339,"remaining_time":0.9475347272},
{"learn":[0.3413632654],"iteration":772,"passed_ti,
{"learn":[0.3474055694],"iteration":772,"passed_time":3.207993019,"remaining_time":0.942062633},
{"learn":[0.3472878106],"iteration":773,"pass,
{"learn":[0.3410401391],"iteration":774,"passed_t,
{"learn":[0.3471835307],"iteration":774,"pas,
{"learn":[0.3409058903],"iteration":775,"passed_ti,
{"learn":[0.3469465947],"iteration":775,"passed_time":3.215440739,"remaining_time":0.9281684609},
{"learn":[0.3468552772],"iteration":776,"passed_time":3.2178171,"remaining_time":0.923517649},
{"learn":[0.3467665408],"iteration":777,"passed_time":3.220712013,"remaining_time":0.9190206515},
{"learn":[0.3466018056],"iteration":778,"passed_time":3.222937934,"remaining_time":0.9143379762},
{"learn":[0.3464691845],"iteration":779,"passed_time":3.225995405,"remaining_time":0.90989614},
{"learn":[0.3463365814],"iteration":780,"passed_time":3.228185504,"remaining_time":0.905214629},
{"learn":[0.3462315974],"iteration":781,"passed_time":3.232334885,"remaining_time":0.9010856839},
{"learn":[0.3460553132],"iteration":782,"passed_time":3.23575213,"remaining_time":0.8967537833},
{"learn":[0.345938783],"iteration":783,"passed_time":3.239209517,"remaining_time":0.8924352752},
{"learn":[0.3458183005],"iteration":784,"passed_time":3.241351487,"remaining_time":0.8877586874},
{"learn":[0.345661136],"iteration":785,"passed_time":3.244220575,"remaining_time":0.883286518},
{"learn":[0.3455249665],"iteration":786,"passed_time":3.246364211,"remaining_time":0.8786220801},
{"learn":[0.3454265452],"iteration":787,"passed_time":3.248869673,"remaining_time":0.874061384},
{"learn":[0.3453437147],"iteration":788,"passed_time":3.251367998,"remaining_time":0.8695039894},
{"learn":[0.3451958983],"iteration":789,"passed_time":3.253613217,"remaining_time":0.8648845259},
{"learn":[0.3451123946],"iteration":790,"passed_time":3.255813931,"remaining_time":0.8602593066},
{"learn":[0.3449979795],"iteration":791,"passed_time":3.258507443,"remaining_time":0.8557696315},
{"learn":[0.3448352116],"iteration":792,"passed_time":3.260640657,"remaining_time":0.8511382294},
{"learn":[0.3446732181],"iteration":793,"passed_time,
{"learn":[0.3384953568],"iteration":794,"passed_time":3.274065299,"remaining_time":0.8442558318},
{"learn":[0.3383500503],"iteration":795,",
{"learn":[0.3444487361],"iteration":795,"passed_time":3.283229069,"remaining_time":0.8414305653},
{"learn":[0.3442903749],"iteration":796,"passed_time":3.286034532,"remaining_time":0.8369698996},
{"learn":[0.3441767232],"iteration":797,"passed_time":3.288073115,"remaining_time":0.8323192597},
{"learn":[0.3439954706],"iteration":798,"passed_time":3.290560712,"remaining_time":0.8277881139},
{"learn":[0.3438908153],"iteration":799,"passed_time":3.292677968,"remaining_time":0.823169492},
{"learn":[0.343750148],"iteration":800,"passed_time":3.294765233,"remaining_time":0.8185496645},
{"learn":[0.3436128216],"iteration":801,"passed_time":3.296635873,"remaining_time":0.813882672},
{"learn":[0.3434648551],"iteration":802,"passed_time":3.314889939,"remaining_time":0.8132419901},
{"learn":[0.3432335206],"iteration":803,"passed_time":3.317359346,"remaining_time":0.8087094923},
{"learn":[0.3430904041],"iteration":804,"passed_time":3.319670825,"remaining_time":0.8041438645},
{"learn":[0.3429951297],"iteration":805,"passed_time":3.322130021,"remaining_time":0.7996193847},
{"learn":[0.3428749324],"iteration":806,"passed_time":3.330921609,"remaining_time":0.7966144617},
{"learn":[0.3427758068],"iteration":807,"passed_time":3.333668651,"remaining_time":0.7921588873},
{"learn":[0.3426290135],"iteration":808,"passed_time":3.336640153,"remaining_time":0.7877605305},
{"learn":[0.3424985596],"iteration":809,"passed_time":3.341301386,"remaining_time":0.7837620535},
{"learn":[0.3423898461],"iteration":810,"passed_time":3.345871081,"remaining_time":0.7797406095},
{"learn":[0.3423194032],"iteration":811,"passed_time":3.348484988,"remaining_time":0.7752649972},
{"learn":[0.3421203041],"iteration":812,"passed_time":3.350758137,"remaining_time":0.7707155864},
{"learn":[0.3419858054],"iteration":813,"passed_time":3.354251366,"remaining_time":0.7664505578},
{"learn":[0.3418429722],"iteration":814,"passed_time":3.356865694,"remaining_time":0.7619879182},
{"learn":[0.3416298102],"iteration":815,"passed_time":3.359505632,"remaining_time":0.7575355836},
{"learn":[0.3414837703],"iteration":816,"passed_time":3.36192572,"remaining_time":0.7530384416},
{"learn":[0.3412876341],"iteration":817,"passed_time":3.364630561,"remaining_time":0.7486097336},
{"learn":[0.3411455974],"iteration":818,"passed_time":3.366992688,"remaining_time":0.7441094952},
{"learn":[0.3410396937],"iteration":819,"passed_time":3.36950784,"remaining_time":0.7396480624},
{"learn":[0.3409020991],"iteration":820,"passed,
{"learn":[0.3350568554],"iteration":821,"passed_time":3.383195571,"remaining_time":0.732614126},
{"learn":[0.3349539471],"iteration":822,"passed_time":3.386546046,"remaining_time":0.7283337182},
{"learn":[0.3348529061],"iteration":823,"passed_time":3.399838942,"remaining_time":0.7261791915},
{"learn":[0.33478432],"iteration":824,"passed_time":3.402551416,"remaining_time":0.7217533306},
{"learn":[0.3346661889],"iteration":825,"passed_time":3.405571272,"remaining_time":0.7173963696},
{"learn":[0.3345610293],"iteration":826,"passed_time":3.407941354,"remaining_time":0.7129067162},
{"learn":[0.3344283545],"iteration":827,"passed_time":3.410179988,"remaining_time":0.7083948767},
{"learn":[0.3343586166],"iteration":828,"passed_time":3.413014807,"remaining_time":0.7040114983},
{"learn":[0.3342702354],"iteration":829,"passed_time":3.41570655,"remaining_time":0.6996025463},
{"learn":[0.3341422867],"iteration":830,"passed_time":3.418164024,"remaining_time":0.6951500843},
{"learn":[0.3340519223],"iteration":831,"passed_time":3.420275853,"remaining_time":0.6906326242},
{"learn":[0.333902163],"iteration":832,"passed_time":3.422755502,"remaining_time":0.6861946805},
{"learn":[0.3338553571],"iteration":833,"passed_time":3.426167939,"remaining_time":0.6819470958},
{"learn":[0.3337560702],"iteration":834,"passed_time":3.428695761,"remaining_time":0.6775267073},
{"learn":[0.3335679298],"iteration":835,"passed_time":3.431137874,"remaining_time":0.6730940328},
{"learn":[0.3334783606],"iteration":836,"passed_time":3.434229472,"remaining_time":0.6687925973},
{"learn":[0.3333211389],"iteration":837,"passed_time":3.436203899,"remaining_time":0.6642780808},
{"learn":[0.3331907531],"iteration":838,"passed_time":3.443117285,"remaining_time":0.6607173812},
{"learn":[0.3330533674],"iteration":839,"passed_time":3.445286744,"remaining_time":0.6562450942},
{"learn":[0.3329455865],"iteration":840,"passed_time":3.458634003,"remaining_time":0.6538915654},
{"learn":[0.332816285],"iteration":841,"passed_time":3.46100895,"remaining_time":0.6494529858},
{"learn":[0.3327087731],"iteration":842,"passed_time":3.463255898,"remaining_time":0.6449954639},
{"learn":[0.3325919308],"iteration":843,"passed_time":3.465568275,"remaining_time":0.6405552736},
{"learn":[0.3324234942],"iteration":844,"passed_time":3.473021793,"remaining_time":0.6370631691},
{"learn":[0.3323361523],"iteration":845,"passed_time":3.475296664,"remaining_time":0.6326190145},
{"learn":[0.3322345309],"iteration":846,"passed_time":3.477652441,"remaining_time":0.6281945967},
{"learn":[0.3320671723],"iteration":847,"passed_time":3.480388549,"remaining_time":0.6238432304},
{"learn":[0.3320019908],"iteration":848,"passed_time":3.482197242,"remaining_time":0.6193307226},
{"learn":[0.3318905547],"iteration":849,"passed_time":3.484786047,"remaining_time":0.6149622437},
{"learn":[0.3317842432],"iteration":850,"passed_time":3.487499468,"remaining_time":0.6106197658},
{"learn":[0.3315498825],"iteration":851,"passed_time":3.48998472,"remaining_time":0.6062414772},
{"learn":[0.3314215234],"iteration":852,"passed_time":3.492404614,"remaining_time":0.6018563638},
{"learn":[0.3312757026],"iteration":853,"passed_time":3.494671852,"remaining_time":0.5974497546},
{"learn":[0.3311743084],"iteration":854,"passed_time":3.496666783,"remaining_time":0.5930019691},
{"learn":[0.3311063476],"iteration":855,"passed_time":3.498575436,"remaining_time":0.5885454004},
{"learn":[0.3310477215],"iteration":856,"passed_time":3.500986646,"remaining_time":0.5841786352},
{"learn":[0.3309256016],"iteration":857,"passed_time":3.518175528,"remaining_time":0.5822621503},
{"learn":[0.3307557119],"iteration":858,"passed_time":3.521383932,"remaining_time":0.5780152904},
{"learn":[0.3306631968],"iteration":859,"passed_time":3.523506609,"remaining_time":0.5735940991},
{"learn":[0.3305424038],"iteration":860,"passed_time":3.525760987,"remaining_time":0.5691995089},
{"learn":[0.3303955038],"iteration":861,"passed_time":3.527972844,"remaining_time":0.5648030771},
{"learn":[0.3302719273],"iteration":862,"passed_time":3.530030266,"remaining_time":0.5603871918},
{"learn":[0.3301509835],"iteration":863,"passed_time":3.532411713,"remaining_time":0.5560277696},
{"learn":[0.3300150138],"iteration":864,"passed_time":3.536099848,"remaining_time":0.5518768549},
{"learn":[0.3299184813],"iteration":865,"passed_time":3.53835039,"remaining_time":0.5475045638},
{"learn":[0.3298532626],"iteration":866,"passed_time":3.540779974,"remaining_time":0.5431646327},
{"learn":[0.3296879185],"iteration":867,"passed_time":3.543419886,"remaining_time":0.5388610887},
{"learn":[0.3295714706],"iteration":868,"passed_time":3.546285356,"remaining_time":0.5345953758},
{"learn":[0.3294088789],"iteration":869,"passed_time":3.549602707,"remaining_time":0.5304004045},
{"learn":[0.3292382097],"iteration":870,"passed_time":3.552013319,"remaining_time":0.5260731551},
{"learn":[0.3290591904],"iteration":871,"passed_time":3.554055903,"remaining_time":0.5216962793},
{"learn":[0.3289587643],"iteration":872,"passed_time":3.556548404,"remaining_time":0.5173902031},
{"learn":[0.3288080942],"iteration":,
{"learn":[0.334239866],"iteration":873,"passed_time":3.559,
{"learn":[0.3287695769],"iteration",
{"learn":[0.3341092485],"iteration":874,"passed_time":3.561,
{"learn":[0.3286526322],"iteration",
{"learn":[0.3339863175],"iteration":875,"passed_time":3.564,
{"learn":[0.3285605559],"iteration",
{"learn":[0.3339104665],"iteration":876,"passed_time":3.566,
{"learn":[0.3284300854],"iteration",
{"learn":[0.3338430324],"iteration":877,"passed_time":3.569,
{"learn":[0.3283658782],"iteration",
{"learn":[0.3337340477],"iteration":878,"passed_time":3.571,
{"learn":[0.3282029028],"iteration",
{"learn":[0.3335889877],"iteration":879,"passed_time":3.573,
{"learn":[0.3279848218],"iteration",
{"learn":[0.3334975336],"iteration":880,"passed_time":3.577,
{"learn":[0.3279289185],"iteration",
{"learn":[0.3333781395],"iteration":881,"passed_time":3.590891525,"remaining_time":0.4804140588},
{"learn":[0.3332647959],"iteration":882,"passed_time":3.592944957,"remaining_time":0.4760753793},
{"learn":[0.333203334],"iteration":883,"passed_time":3.595018699,"remaining_time":0.4717445351},
{"learn":[0.3331165511],"iteration":884,"passed_time":3.597527447,"remaining_time":0.4674753179},
{"learn":[0.3330322453],"iteration":885,"passed_time":3.599901421,"remaining_time":0.4631927336},
{"learn":[0.3329524765],"iteration":886,"passed_time":3.602733516,"remaining_time":0.4589728155},
{"learn":[0.3328480166],"iteration":887,"passed_time":3.605117162,"remaining_time":0.4546994619},
{"learn":[0.3327876125],"iteration":888,"passed_time":3.607643043,"remaining_time":0.450448119},
{"learn":[0.332642618],"iteration":889,"passed_time":3.610009634,"remaining_time":0.446180966},
{"learn":[0.3323987166],"iteration":890,"passed_time":3.612780969,"remaining_time":0.4419675933},
{"learn":[0.3322937271],"iteration":891,"passed_time":3.614964915,"remaining_time":0.437686335},
{"learn":[0.3321920996],"iteration":892,"passed_time":3.617226877,"remaining_time":0.4334191219},
{"learn":[0.3320952628],"iteration":893,"passed_time":3.61995469,"remaining_time":0.4292116299},
{"learn":[0.3319821933],"iteration":894,"passed_time":3.622722366,"remaining_time":0.4250121212},
{"learn":[0.3318440695],"iteration":895,"passed_time":3.62519558,"remaining_time":0.4207816299},
{"learn":[0.3316983233],"iteration":896,"passed_time":3.628013568,"remaining_time":0.416594646},
{"learn":[0.3315819234],"iteration":897,"passed_time":3.630442019,"remaining_time":0.4123664654},
{"learn":[0.3314800244],"iteration":898,"passed_time":3.632562689,"remaining_time":0.4081077103},
{"learn":[0.3313187963],"iteration":899,"passed_time":3.634942105,"remaining_time":0.4038824561},
{"learn":[0.3311582885],"iteration":900,"passed_time":3.637978258,"remaining_time":0.3997334601},
{"learn":[0.331042122],"iteration":901,"passed_time":3.641071757,"remaining_time":0.395593162},
{"learn":[0.3309068493],"iteration":902,"passed_time":3.643510925,"remaining_time":0.3913848945},
{"learn":[0.3307872561],"iteration":903,"passed_time":3.645729432,"remaining_time":0.3871571079},
{"learn":[0.3307337688],"iteration":904,"passed_time":3.647871321,"remaining_time":0.3829257187},
{"learn":[0.3305819173],"iteration":905,"passed_time":3.650307497,"remaining_time":0.3787294754},
{"learn":[0.3304710521],"iteration":906,"passed_time":3.653120301,"remaining_time":0.3745757309},
{"learn":[0.3303029005],"iteration":907,"passed_time":3.655581672,"remaining_time":0.3703893324},
{"learn":[0.3302140162],"iteration":908,"passed_time":3.657945538,"remaining_time":0.366196968},
{"learn":[0.3301322612],"iteration":909,"passed_time":3.6604086,
{"learn":[0.3245654929],"iteration":910,"passed_time":3.674019971,"remaining_time":0.3589327962},
{"learn":[0.3244496048],"iteration":911,"passed_time":3.676421685,"remaining_time":0.3547424432},
{"learn":[0.3243045226],"iteration":912,"passed_time":3.688764294,"remaining_time":0.3515032789},
{"learn":[0.3242212554],"iteration":913,"passed_time":3.691118212,"remaining_time":0.3473043394},
{"learn":[0.3240093784],"iteration":914,"passed_time":3.70494177,"remaining_time":0.3441749185},
{"learn":[0.3239532335],"iteration":915,"passed_time":3.706880735,"remaining_time":0.3399322945},
{"learn":[0.3237498144],"iteration":916,"passed_time":3.709382981,"remaining_time":0.3357456788},
{"learn":[0.3235939271],"iteration":917,"passed_time":3.719828362,"remaining_time":0.3322722502},
{"learn":[0.3234981969],"iteration":918,"passed_time":3.721897768,"remaining_time":0.3280453963},
{"learn":[0.3234141082],"iteration":919,"passed_time":3.72381473,"remaining_time":0.3238099765},
{"learn":[0.3232884307],"iteration":920,"passed_time":3.725890868,"remaining_time":0.319593245},
{"learn":[0.323088507],"iteration":921,"passed_time":3.727980101,"remaining_time":0.3153822645},
{"learn":[0.3229820402],"iteration":922,"passed_time":3.730173278,"remaining_time":0.311184553},
{"learn":[0.3228425987],"iteration":923,"passed_time":3.732450866,"remaining_time":0.3069981232},
{"learn":[0.3226812474],"iteration":924,"passed_time":3.73483219,"remaining_time":0.3028242316},
{"learn":[0.3224579664],"iteration":925,"passed_time":3.736698953,"remaining_time":0.2986130913},
{"learn":[0.3224033],"iteration":926,"passed_time":3.739221528,"remaining_time":0.2944586533},
{"learn":[0.3223265164],"iteration":927,"passed_time":3.741535661,"remaining_time":0.2902915599},
{"learn":[0.3221857098],"iteration":928,"passed_time":3.743860096,"remaining_time":0.2861292431},
{"learn":[0.3221028112],"iteration":929,"passed_time":3.746070977,"remaining_time":0.2819623316},
{"learn":[0.3219852453],"iteration":930,"passed_time":3.748221831,"remaining_time":0.2777951733},
{"learn":[0.3219157381],"iteration":931,"passed_time":3.75041319,"remaining_time":0.2736352971},
{"learn":[0.3217120755],"iteration":932,"passed_time":3.752694692,"remaining_time":0.269486114},
{"learn":[0.3215668367],"iteration":933,"passed_time":3.75517473,"remaining_time":0.2653549595},
{"learn":[0.3214732804],"iteration":934,"passed_time":3.757087849,"remaining_time":0.2611879253},
{"learn":[0.321416716],"iteration":935,"passed_time":3.759535138,"remaining_time":0.2570622316},
{"learn":[0.321342461],"iteration":936,"passed_time":3.761425074,"remaining_time":0.2529026464},
{"learn":[0.3212718702],"iteration":937,"passed_time":3.763492598,"remaining_time":0.2487596387},
{"learn":[0.3212049876],"iteration":938,"passed_time":3.766366031,"remaining_time":0.2446734057},
{"learn":[0.321063626],"iteration":939,"passed_time":3.768658016,"remaining_time":0.2405526393},
{"learn":[0.3209970268],"iteration":940,"passed_time":3.770553768,"remaining_time":0.2364109163},
{"learn":[0.3209195697],"iteration":941,"passed_time":3.772977201,"remaining_time":0.2323064519},
{"learn":[0.3207872632],"iteration":942,"passed_time":3.775263544,"remaining_time":0.2281972662},
{"learn":[0.3206383249],"iteration":943,"passed_time":3.777307635,"remaining_time":0.2240775715},
{"learn":[0.3204869794],"iteration":944,"passed_time":3.796294224,"remaining_time":0.2209483411},
{"learn":[0.3203748156],"iteration":945,"passed_time":3.798267853,"remaining_time":0.216814444},
{"learn":[0.3203215838],"iteration":946,"passed_time":3.800469976,"remaining_time":0.2126978973},
{"learn":[0.3202523147],"iteration":947,"passed_time":3.802831972,"remaining_time":0.2085941588},
{"learn":[0.3201287837],"iteration":948,"passed_time":3.805281463,"remaining_time":0.204498793},
{"learn":[0.3200101324],"iteration":949,"passed_time":3.807782618,"remaining_time":0.2004096115},
{"learn":[0.3199324951],"iteration":950,"passed_time":3.810150157,"remaining_time":0.1963168851},
{"learn":[0.319878903],"iteration":951,"passed_time":3.812477086,"remaining_time":0.1922257354},
{"learn":[0.319768302],"iteration":952,"passed_time":3.814866672,"remaining_time":0.1881413784},
{"learn":[0.3196888733],"iteration":953,"passed_time":3.817325184,"remaining_time":0.1840638978},
{"learn":[0.3195346928],"iteration":954,"passed_time":3.819442153,"remaining_time":0.179973714},
{"learn":[0.3193371696],"iteration":955,"passed_time":3.821394962,"remaining_time":0.1758801028},
{"learn":[0.3192584637],"iteration":956,"passed_time":3.823195133,"remaining_time":0.1717841073},
{"learn":[0.3191538517],"iteration":957,"passed_time":3.82495506,"remaining_time":0.1676911404},
{"learn":[0.3189968447],"iteration":958,"passed_time":3.827049479,"remaining_time":0.1636173396},
{"learn":[0.3188902508],"iteration":959,"passed_time":3.828963323,"remaining_time":0.1595401384},
{"learn":[0.3187750567],"iteration":960,"passed_time":3.830989986,"remaining_time":0.1554720182},
{"learn":[0.3186300845],"iteration":961,"passed_time":3.83296186,"remaining_time":0.1514059778},
{"learn":[0.3185365552],"iteration":962,"passed_time":3.835080602,"remaining_time":0.1473499297},
{"learn":[0.3183717086],"iteration":963,"passed_time":3.836845791,"remaining_time":0.1432846976},
{"learn":[0.3182338888],"iteration":964,"passed_time":3.838724439,"remaining_time":0.1392283475},
{"learn":[0.3181505555],"iteration":965,"passed_time":3.840693993,"remaining_time":0.1351797057},
{"learn":[0.3180269915],"iteration":966,"passed_time":3.842230637,"remaining_time":0.1311205905},
{"learn":[0.3179100176],"iteration":967,"passed_time":3.857813358,"remaining_time":0.1275310201},
{"learn":[0.3176981183],"iteration":968,"passed_time":3.85959678,"remaining_time":0.1234752324},
{"learn":[0.3175852005],"iteration":969,"passed_time":3.861397703,"remaining_time":0.1194246712},
{"learn":[0.3174771877],"iteration":970,"passed_time":3.86308125,"remaining_time":0.1153752382},
{"learn":[0.3173885537],"iteration":971,"passed_time":3.872594845,"remaining_time":0.1115562301},
{"learn":[0.3173269929],"iteration":972,"passed_time":3.874483893,"remaining_time":0.1075139415},
{"learn":[0.3171816487],"iteration":973,"passed_time":3.876326808,"remaining_time":0.1034748429},
{"learn":[0.3170596352],"iteration":974,"passed_time":3.878021189,"remaining_time":0.09943644075},
{"learn":[0.3169316937],,
{"learn":[0.3228668448],"iteration":975,"passed_time":3.882024486,"remaining_time":0.09545961852},
{"learn":[0.3226371649],"iteration":976,"passed_time":3.883878256,"remaining_time":0.09143213908},
{"learn":[0.3225435428],"iteration":977,"passed_time":3.885540297,"remaining_time":0.08740479196},
{"learn":[0.3224501625],"iteration":978,"passed_time":3.887152452,"re,
{"learn":[0.3164438761],"iteration":979,"passed_time":3.901032781,"remaining_time":0.0796129139},
{"learn":[0.3164112546],"iteration":980,"passed_time":3.903102799,"remaining_time":0.07559526319},
{"learn":[0.3163417489],"iteration":981,"passed_time":3.905242164,"remaining_time":0.07158285026},
{"learn":[0.3162196149],"iteration":982,"passed_time":3.907355788,"remaining_time":0.06757380305},
{"learn":[0.316069309],"iteration":983,"passed_time":3.9094803,"remaining_time":0.06356878536},
{"learn":[0.3160045284],"iteration":984,"passed_time":3.915947288,"remaining_time":0.05963371505},
{"learn":[0.3158760457],"iteration":985,"passed_time":3.918098758,"remaining_time":0.05563223389},
{"learn":[0.3157953658],"iteration":986,"passed_time":3.93123267,"remaining_time":0.0517791537},
{"learn":[0.3157197234],"iteration":987,"passed_time":3.946881517,"remaining_time":0.04793783219},
{"learn":[0.3155632053],"iteration":988,"passed_time":3.963216177,"remaining_time":0.04408026081},
{"learn":[0.315490555],"iteration":989,"passed_time":3.965256889,"remaining_time":0.04005309989},
{"learn":[0.3153889544],"iteration":990,"passed_time":3.967228206,"remaining_time":0.03602931771},
{"learn":[0.3152886667],"iteration":991,"passed_time":3.977827828,"remaining_time":0.03207925668},
{"learn":[0.3151947002],"iteration":992,"passed_time":3.993017956,"remaining_time":0.02814816283},
{"learn":[0.315075503],"iteration":993,"passed_time":3.994642814,"remaining_time":0.02411253207},
{"learn":[0.3149764098],"iteration":994,"passed_time":3.99616534,"remaining_time":0.02008123286},
{"learn":[0.3147921207],"iteration":995,"passed_time":3.997866489,"remaining_time":0.01605568871},
{"learn":[0.3146563199],"iteration":996,"passed_time":3.99955309,"remaining_time":0.01203476356},
{"learn":[0.3145724201],"iteration":997,"passed_time":4.001184302,"remaining_time":0.008018405414},
{"learn":[0.3144914948],"iteration":998,"passed_time":4.007227129,"remaining_time":0.004011238367},
{"learn":[0.3144254238],"iteration":999,"passed_time":4.009032447,"remaining_time":0}
]}0196957,"remaining_time":0}
]}2986451,"remaining_time":0}
]},"iteration":995,"passed_time":2.105188672,"remaining_time":0.00845457298},
{"learn":[0.3123506143],"iteration":996,"passed_time":2.107633831,"remaining_time":0.006341927273},
{"learn":[0.3122644255],"iteration":997,"passed_time":2.109880618,"remaining_time":0.004228217671},
{"learn":[0.3121066102],"iteration":998,"passed_time":2.125326549,"remaining_time":0.002127454003},
{"learn":[0.311996729],"iteration":999,"passed_time":2.127630266,"remaining_time":0}
]}